<?xml version="1.0" encoding="UTF-8" standalone="no"?>
<!-- Created with Inkscape (http://www.inkscape.org/) -->

<svg
   xmlns:dc="http://purl.org/dc/elements/1.1/"
   xmlns:cc="http://creativecommons.org/ns#"
   xmlns:rdf="http://www.w3.org/1999/02/22-rdf-syntax-ns#"
   xmlns:svg="http://www.w3.org/2000/svg"
   xmlns="http://www.w3.org/2000/svg"
   xmlns:xlink="http://www.w3.org/1999/xlink"
   xmlns:sodipodi="http://sodipodi.sourceforge.net/DTD/sodipodi-0.dtd"
   xmlns:inkscape="http://www.inkscape.org/namespaces/inkscape"
   width="131"
   height="131"
   viewBox="0 0 131 131"
   id="svg2"
   version="1.1"
   inkscape:version="0.91 r13725"
   sodipodi:docname="logo.svg"
   inkscape:export-filename="/home/mxs/src/python/citotron/logo2.png"
   inkscape:export-xdpi="90"
   inkscape:export-ydpi="90">
  <defs
     id="defs4" />
  <sodipodi:namedview
     id="base"
     pagecolor="#ffffff"
     bordercolor="#666666"
     borderopacity="1.0"
     inkscape:pageopacity="0.0"
     inkscape:pageshadow="2"
     inkscape:zoom="1"
     inkscape:cx="80.467143"
     inkscape:cy="7.3687547"
     inkscape:document-units="px"
     inkscape:current-layer="layer1"
     showgrid="false"
     inkscape:window-width="635"
     inkscape:window-height="387"
     inkscape:window-x="639"
     inkscape:window-y="16"
     inkscape:window-maximized="0"
     borderlayer="true"
     fit-margin-top="0"
     fit-margin-left="0"
     fit-margin-right="0"
     fit-margin-bottom="0"
     units="px" />
  <metadata
     id="metadata7">
    <rdf:RDF>
      <cc:Work
         rdf:about="">
        <dc:format>image/svg+xml</dc:format>
        <dc:type
           rdf:resource="http://purl.org/dc/dcmitype/StillImage" />
        <dc:title></dc:title>
      </cc:Work>
    </rdf:RDF>
  </metadata>
  <g
     inkscape:label="Layer 1"
     inkscape:groupmode="layer"
     id="layer1"
     transform="translate(-317.63126,-408.73097)">
    <image
       y="408.73096"
       x="317.63126"
       id="image4601"
       xlink:href="data:image/png;base64,iVBORw0KGgoAAAANSUhEUgAAAIMAAACDCAMAAACZQ1hUAAADAFBMVEUAAAAAAgABAQ4JAQACBQEQ AQEABQkWAAMZAQAdAAAhAAAiAQEqAAAUBgcJCBwXBwEICwcxAAIyAAA4AAI7AAAMDwtCAARJAANL AAAQEg9UAABBBQcRExBaAgAVFhRkAgAWAP9tAQAQFkUbAP8UCOUADP9FEBAaHBkbHBqBAAR5AwAA Dv+IAAEtGRhqCgQbHDwCEP+VAAKgAAEhIyAfIFIkJSOtAAElJyS4AAAmJUfDAAAcGv8qLCkrJmfN AAMAJP/RAACNExUjHf/cAAMYK5yXFBQwMi/qBAIsL480NjP8AAMvJP//AACPICMjLf+RIx+EJyVi MS87PTolMfOAKyp8Li88Lf8/QD5tNDVBQkAxNP84OrcxOtwlO/88OsdERkOQMjM2O+ZISUc7TU0+ O/80Qf9MTktHQv9QUk9LS7xSVFFASP9VVlRLS+BHT8ZQSf5QU5yIS0dKT/9bXVpdX1xZUP+bUFBS Vf9hY2BgVv5XWv9lZmT/PT1gXe1bXf+4VVNpa2hnXf5fYf9iY/9vcW5maP90dnNqa/9vbO9sb/9r cvRvcf96fHn/WVd5cv5zdv/Ya2qTfnuBg4D/YV9+ef6EhoN6fv/lcHLCenyEgP+Ji4jPeHn/bHCA hf+MjoveeHmLhvH/cXLud3OPkY6KiP+FjP+JjPb/d3TBiIqTlZL/eXuNjv+Vl5S/jIyQkf/+fn3s hIWYkf6am5j/goaTlv+eoJ3/iIigop/vjYufm//2jY2Znv//joulp6T/kJOiof+pq6iqpP3/lpan qf+usK2sqfv/nJmwsq7/nqGwrf+0trOssf/+o6Oys/63uba1tf/9qaa6vLm8uP65vf/Bw7//s7PA v/6/wvrFx8TDw//JxP3IysfFyP/KzMnHyv/My/3LzvnPzv/R09DV0P3U1tPS1f/Z2P3b3drc2//f 4d7j3v3g4evd4f7g5P/k5uPm6OXn5//p6+jq6f/v6/3q7v7s8P/u8v/x8/Dy8/3z9fL19v/7+P3+ /P/5/v/8/vv///9m4rKfAAAAAWJLR0QAiAUdSAAAAAlwSFlzAAB7CAAAewgBeCQdoQAAAAd0SU1F B98KHhMYJQK1bWAAABJ+SURBVHja7Vvfa9voms4L+gN8ozsjdDEGXRp0oRtBwRcCEciFLgoOHAwm dQ0xDMSEejAbvFPHbDdiA6Yu1DBmwd0Fk6s1ATMUE5dyMPWhFM2YrOcQ0a1HrePZIOr+wFGSnm8/ ybIjyc5sJnFmbkaUVLIV6dH743mf9/2UBfTHbwt/YvgTw58YLo2hHQ03jT8Ww5ACAL42+CMxqCB3 ZBHIVK33h2EoQF9LF5pFFiBa7hp/BAadlFAKO0NFbZkH8ElK/3fHUIR2F/g0W7cAtTLYHGKjq/+u GCQJyVB3xodpDiLa+v0w9CGPeBbv/P3Fu7MJjIrMAhXOab8PhipoPYiiL49omn7s/KIW8QOke78H hrCAkqCgLfrOVpB+6/rKaGdJ8EeaN42hDTUksP94Qq8eo4Odw2PP14NqigImUTduEkMaNA0inwK3 PuKD05XQ6v3HL0/d1milOPClOsMbw8DEMTk0ntE75sH7wOZ2gKaXNhH64jpLS+BMEUvGjWDoQxWF yf+9FTgyj/bod+g5vbX+6u36Lvr42Ylj0MmzwMRL2vwx1EDrgngUDFmBsLGM0A59hD4u0sGtQPD2 jjs8alFc3eLqvDGkKZSHBlqmf8QHn4O7CN1dRScrwW/p7Ye3aDq46s4U1MlSEJbVuWIQ4gYpGtgB occf0NPQCXoT2Eeb9Is9+g32zPbO9tGZ5zeMhkhASpsfhi6UZcjhnZdBehstrSG0eh8DokPB21/Q N8EPCH27jo72PBlrlBhgZG1OGFLQxxHP4Xj/fPDpZ3oPvaL3PwbuPtqgn6CjwK7pno3DRfrWQ3S2 8z9OFLWkHyKV/jwwxIhcuxqummm5d4jefkabi2gzcIgO6b+h7wOYMp7TP31NL9Ib6L/oB/iso386 OmcvDggm1b1+PGQAMlZJ+HkxsPr8FB2+28cmQK+/2kdff40/Xl1+RW8eBx4dBWjzcIP+b4cxetUY AUJB0a/JUUoGfAnLtT9tLS5v7aMftnAU/vWrg+Pg3xA6oP96b/HLG/rHjaXFxTP0mn6ET/zy6ZxI +8UYiS/QGF4HA5YtRQqktrl3tv9o95cn+zgC3z48XjMp496SGRVbt1/Rr5aDx2g1+MmMX/pbhH58 dDL+/VaeAjLTuw4GvFUY4Nuj3eNna0uPD/D/wW1sGvr5q+Dnd4EX3y6j5WVsFSsmQvR99DFkJs1k 62V8wJX062DAcS7ApEa/fnj7L49fHGGm/nf6/WP69co3R/R/oNAmWrUY/QGNI+YBvbb18I3TmtUk QLjUvzoGjKLOAT+Wbyc7a6Hl3ffo6AV+djp0shP8fBpcfYqR4AQK0vTT0+DSfZoOLH3nqj0FPxAp /Tq93hAnW6I1Lo2ft1dC6+/xzs69g7NbG+hzCDO3aYbH9C365116505o797i8s6zfUelH9TiQOZ7 1+k3hzi4uMak33p7N7TxwgzCXfolOlui6Yfmh/S9b4OHS8EdGjMY2scCMPTgtTMyTM77FZdcoudt i0AkNaTWy2ZdOtxbCW7vn77DtzMxHFgM8ebunV36mzV63zrafbK6svjOeQmLNdhMy7hy3200JPBn sJr15a10fbNFr5kuQd/R6/jnO3rjNLi2GHgSoDGdjqTPAR184q4oWj4CQCU6V+/9WwJYW2F0eD8Y WHpxjD5umxT5r1+9eR8I0XfXb23eP0Mry+YJa4FleufLxjO3OCrymEPzSu+q84ciYWLIjw6+nO7f C4ZWX1ghQv8Ljg46tIbLG+YprHQO0FP6exTawGR++8He/pGzKOew5CG7V8QwlEwMXGPywfGLRfre 7gF6SD9HuBHZXbmFCf1kiQ4Ef0AmoS7d3aOXQ1iKLp4em56rK3Zdi4yf5DdjaOTSGAMB0XONcPz2 UYheufXPX9Dxf+4+o5dOTNX3w6cTbIwnuMxurYc+n70/fL6L7gWe4oYBIootDhpXxGC0e2FI9zMU JJxK5fnq3eV10yfPgriYvg8smhrrawzn7uJrU2wgO1u3hs0wQBQn6MAfucY8qmzKK6PgI8KuB/n8 fG9z+widbNJr963W8Eecoy/oV9v05i/WCWuLB3+hf8L61w+Y+2OgXANDFVJWeOcZyLoL8+vlEBbA 73Forn5Ax5hCDwPb73AoWHX97zhbX9H/hvfioGKfJK4zl9MgY+/JwJbd2vFgJfjdMdpdptcwc/+A cCjcD719/cBMzhUcoCehJcxUPuwFETrXwTAkJ57UwuAruFjv885SEMfFy6do5fbL9cDBWcju2A9M 0jpbxCqwioNRt+TydTCIjq5CBH/WNbc7fUyv4jLxIRQKBPdx0263IfdMkfMhcAfhXr6PsqBeb0bK hF19bwyXZc1hjC9H3wce/PLL5tL2Ke5JRm0a+gU3CFgI4uKm4nBqQ+yac1qOcRedXokFMu70ycH6 yjfPTEZ6St86HJkhYB6u4641RvZQZIYZfhuGKOUtfEZLpoCtD6ySkjOT5fRhKHBvH53eoYPfvfmE A3Tbiol1HNEFpPvF686rk8QMRaRjzUckq21MQSM7n+58jS1/eh/n5p2DAI0DFffLr/8h8QZuGyrX xkDO1utKnBiV1bT9wf7dxUdvjt9sr67TwZ2dJ8v0M5zOHaT7WOO6GFJg26FTzRfrXQeggZpmTRA1 +/hsbyN459UxeomNEQit7OOAxNSU9VarK2BIjzCoWI348A39qeq5FDAKJgYHB77fXgpunnz4AXeL JkWSfZwU/PXXL0TBomwCcoOhrpoPTpwPCjPAJSPAyw7OeL00mich1ISiWSnq18fAc9YcGYh4Gft1 oKumZi6MR9zUABkVv1NioOPdn+zBL2hoQCbRtTEYDLZlHSgfl5/kBy7oGbugWSE/bAjAu1dfBtFM zc8MZ1Lkb7cDG0FDjqtHnVpsOKIdg+PHN64LQNUcKHrmekwTVSCM5oCBiaMctAbuBNWphKUtHL5W WGDK5yj0RrmMUMLfnwMGgwr3Z5S9BlRR38c6kRlNEZii6v7lJJqHHSJ81D9jiSsGvawZ927ewrwp OSaosldFXhFDhZhJMgqkiBl1QMEtXqpnx87Az6O5YDB4bma3xpsxN2NrCiDWR0OMDsjzwVCF2Qs5 0rRGtEFXGKAqI1d05oLBYITZXwjQvlB7VVjMne0WRNFcMFxkT+XCzLeQV61etTEfDGWYPXlMjFvh izY1PEvCXQlDjJk9n4BfibcxVxpzwsDELjADZOe+jnPB1p/ioVE7T/hmZ6aWH8wdgzr7VlEsZmbM 6xsyCc25Y1BmSpASjnll1skAN4BBneV2szB7+NvoazkZYtWsT5k7hiGRmvpsgHM/7pwYZXHhNrVm 2XyPoz13DIgXZqhc8DlIWCcJich2aorJSEO2O38M2SnOL4F/0lPY1YualJQbwdD1kn6LAC7lUiqR uLPKduaPARUkVxI2fGCtOTm2TNQp8tQbwNBmnIWhQwHllYiyg0p7rH4DGAZhM97HDEABMVUM8w5f KNTwBjCYIOwQ7MUIEKf9XXJU8bKIbgKDyQdCVe13MgzALJ1cFpzRczMY0DBLmtNa3POysypSy4Eh k7khDFhcQ4Kn2tIFKnbsi0Gtl705DD2QKJCgNLuu2TGg88BFYzeGAYlmSbygaVJEXVGUZqcMzOWV zUI4kS03ur/lBcE2joiLlHod7KkQozIQu+R7KguynI6JPC9I8fIFi29DY6q3I5sXBguRrKWERL1j lrP8JTHEEvF8pdFoVnNhlo3kKu2ewyZavZARWFaqYbYxJlBqkNSb7Y7W06fMp/sb550Acfna3Veq +Wyzpfd1pZCOshTDizG52qwXUiIbScmNXrcsMDzPsp1Jo12u8jzH4I0TpHAsGpVSRbtGcue6hbt0 XiRiibAoCFKy1LSeytC7baWWlliGolgxFk3K9a6BtHanW/CLRbvPsB52oPf73Y7SqFartZxEpuID s1ZO6tSQql8WQ7YgN1S9W09LPMMn9dHwNY8dw4mJTLFSlRMSzzJWiHcr3fO2s8pyfLxQa2u2P1rh inXj846UHw8Kh51qIZ3zTBMvyE2tJlsYEmw6W2k7SmK/2XL3Wzh61UxCIq0UoMLJXKFuX54/b3ei IzuoCYaLp7JyMR3n+UT3kvyg/z85lQH72Ydaq5jg/UBw4vg9hdQ5MUkti9v9yfb4eoaWpZSZGC68 o9FpdzqNaqWguG0Ydfd8RjstTrKheF4wpI65Ihl2Z7zCYfzNhtLp9vTxVRfiHBORS42WovYGLiYw qjhAeE6MxRIslXDKEe5X+nhZOJdR2O7RKT7NNNHQXjT2sZiVckO04B8dsxzHspiqRCk84p8Gy08G fEY3QZ6LtgGBNYQx0DpKs1HOyU2XlkpNMAzEASpPz21K8aQghHP1RqVUKuWzWRljABAL/ihk0HCg a2q71cwzYhv1E/6auyBSaeccLsWwHE5oKZqIiYxUPeeq8HisjnoiMjgrLJ1MViEhUu24uW1BECkf YyQdqyPDPFOgkl4tqJsRX89gUVDAt1Hb/UmM9Es8O5lGJv3jz1URtYlCEqvgjEPyFbGpWYZh+XAy W7fvsSAWan7gedd4I29PTXTn2EBjCwKXyZSRNNZo7RgTL1rvcdYFxq4gxgS7EkeDfNHi1hEsJSaw XNHAbtR7KubmJM+IKTOdFtoZ3ieCLDhMr5A4gQaNGEUAGe87Jl/lkX4YUUBb9EVyCZ4krZlX3YfN biiVQgZTWljGl27EPbMYVm53C4RT4GmUNexeMLN8SFUUK+a6rXoln2XKWAeQ/liloVR5qju0vKdx 0dFLaG0wTx0kqKz1yEN+FK11vi8zQInJfLGUoiCBSoKT/TJUqoPUmtH3O/sy1brEgsUtOa6Beb7C URzHiyLD8b7EmBNipJ/gs2qXkSflWTF1e2wcV5URAQw54GsTR7RYqujgVhmzKUVQPiBzJUd7MI5J EMtDHDwa0iXefvcmC8lzYhn4I01ZAHLCwSlCRy1/1SsyRM+UJgPn3tW4Yo0o9lI8hbH4fJ0pDPjj eBIqOjOWXjW/i0+z5pBXS076GUFCKultbgaiSHlKQXGitTQ2o+WIRJzhGYuLeI/sWFDkRDjMATsp Nl1fzTOWty5e8I0qwtCXcxamscZMIZGpai5Oj0Rsp1MQlqKxTCUWb+TAD3DBeyCVc5EaZr2T0VHa RQT7sFabYr80lvRKhCXZjHnusFZoWi2x9bwqk7bXdSoFzFqpHADZn4UhN1mX6Ps8bWLfdmx7NHaq gMp7R6JVu9/pK3nMw9EokL1J3932TbqAftbMez0PkJqBocKnJ2sjKR4NXTjHGcFaAZOsKozHn33W IRy79VKjbk2NDFP89ShHqKbwUySzWBO7+nXFwtD1q/okrXIc6rkil7NXHvLmqt6ghOS0txTGpyU+ NsGQwT8kZ+Hs4ULeJlIJEudnoyBXrGlGljAxGIKzaZJF77TeDqGmfziQWYYlPCGlT+uSIVk0WbCP Y8IlH1qReJIEhjL/+bH4iXWQ7FNNDLmI66m8Lbtou0ljiiRwqZTP01zUmWkVFEuZvdAART02G0bM fjmB+zTzD41aHEi+hhkPCuOqkS2fZ7jC2xgGFCRbpoc932dnrBzksMypkcZg2kS6AGwKSH1MoISK MeiMh/MEd/b3xpNg3VfWO+ZAyKOOIzP6iDw2ZolB9RmjGB7CKRgvzfXCDNVbQImIN9ndH9THfDFk Oqb2VL3tdGzGykEBx28qjKLTU1VdYCJhOLf1gAkvdAjv9Kzp9m92XG37TH8kxjznx2esoOSwHSQF MdPrX1o8jvtiR6iqxEKFnZLTnCuQItnJVM4yrOyVqYkZPX46Zup1hZzu55VYEkTG6aP4DAyoBdUx fmNYmTBSfaT30l4M8rTBkWT5R/ZNTwdrUQlk1jl17i50ffJgML0kYcdzhj/vGgujN1GSXgy16fmb Nsrffn56WlP1+aBBptxcrUhSzhO9PQn8zRHfOda35VF7lfSuZfampxF5sP09zRw1AEmF6iVmQXlg h0jPEJzjZHUUnCVuipn93i7SuPgl4ipAqeFeILwAQwsrDcGzut0R7aWUkZ+G5Yn1fstfE5YAagnx UjOxNANC1U1yst1mRljNfAddKKOrbBhDjixeci7X867iVexA6AkQjlCMciUIKA28DNpVZ4P5CQ8o pWraV70CgEEp7CMz3cKV55M2k/QUq6sgrmQHpaTV1CvMSIf2K085LJQNNe3LWRYV5/cXlJfAYNcJ lMYdNmu/rc4JTW2+GIxfHf7owsgOUbXTUEa7hj+B0HwxKNyvGVa3e5IIdmR7tNvzteeNAeVj6sWm MIQRwrBWV6QRL3XIef6N8/8BNFiushqwfiAAAAAASUVORK5CYII= "
       preserveAspectRatio="none"
       height="131"
       width="131" />
    <text
       xml:space="preserve"
       style="font-style:normal;font-variant:normal;font-weight:normal;font-stretch:semi-condensed;font-size:148.51289368px;line-height:100%;font-family:serif;-inkscape-font-specification:'serif Semi-Condensed';text-align:center;writing-mode:lr-tb;text-anchor:middle;opacity:1;fill:#000000;fill-opacity:1;stroke:#000000;stroke-width:14.85128689;stroke-miterlimit:4;stroke-dasharray:none;stroke-dashoffset:0;stroke-opacity:1"
       x="383.37997"
       y="440.82559"
       id="text3342"
       sodipodi:linespacing="100%"
       transform="scale(0.83123583,1.203028)"><tspan
         sodipodi:role="line"
         id="tspan3344"
         x="383.37997"
         y="440.82559"
         style="stroke-width:14.85128689">[</tspan></text>
    <text
       transform="scale(-0.83123584,1.203028)"
       sodipodi:linespacing="100%"
       id="text3346"
       y="440.82562"
       x="-538.45538"
       style="font-style:normal;font-variant:normal;font-weight:normal;font-stretch:semi-condensed;font-size:148.51289368px;line-height:100%;font-family:serif;-inkscape-font-specification:'serif Semi-Condensed';text-align:center;writing-mode:lr-tb;text-anchor:middle;opacity:1;fill:#000000;fill-opacity:1;stroke:#000000;stroke-width:14.85128689;stroke-miterlimit:4;stroke-dasharray:none;stroke-dashoffset:0;stroke-opacity:1"
       xml:space="preserve"><tspan
         style="stroke-width:14.85128689"
         y="440.82562"
         x="-538.45538"
         id="tspan3348"
         sodipodi:role="line">[</tspan></text>
  </g>
</svg>
