page_id	page_title	rev_id	timestamp	type	id
7	Andorra	78818036	2014-12-16T03:55:18Z	isbn	8484156729
7	Andorra	78818036	2014-12-16T03:55:18Z	isbn	9788423206186
7	Andorra	78818036	2014-12-16T03:55:18Z	isbn	9789992020289
7	Andorra	78818036	2014-12-16T03:55:18Z	isbn	8478202838
7	Andorra	78818036	2014-12-16T03:55:18Z	isbn	8485620070
7	Andorra	78818036	2014-12-16T03:55:18Z	isbn	9789992016299
7	Andorra	78818036	2014-12-16T03:55:18Z	isbn	9789992016770
10	Argentina	78655975	2014-12-09T20:24:22Z	isbn	9509122572
10	Argentina	78655975	2014-12-09T20:24:22Z	isbn	9505385706
10	Argentina	78655975	2014-12-09T20:24:22Z	isbn	9788469042304
10	Argentina	78655975	2014-12-09T20:24:22Z	isbn	9507012036
10	Argentina	78655975	2014-12-09T20:24:22Z	doi	10.1111/j
10	Argentina	78655975	2014-12-09T20:24:22Z	isbn	9789506202088
10	Argentina	78655975	2014-12-09T20:24:22Z	isbn	9789875290464
10	Argentina	78655975	2014-12-09T20:24:22Z	isbn	9879604938
10	Argentina	78655975	2014-12-09T20:24:22Z	isbn	9507424156
10	Argentina	78655975	2014-12-09T20:24:22Z	isbn	9502112563
10	Argentina	78655975	2014-12-09T20:24:22Z	doi	10.1111/j.1469-1809.2009.00556.x/full
10	Argentina	78655975	2014-12-09T20:24:22Z	doi	10.1086/522350
19	Artes visuales	78465389	2014-11-30T21:12:41Z	isbn	968167751X
20	Agricultura	78853005	2014-12-17T19:45:32Z	isbn	2020530619
20	Agricultura	78853005	2014-12-17T19:45:32Z	isbn	9788468883175
20	Agricultura	78853005	2014-12-17T19:45:32Z	isbn	1583671218
28	Agujero negro	78574985	2014-12-06T00:31:10Z	isbn	0521099064
28	Agujero negro	78574985	2014-12-06T00:31:10Z	isbn	0226870324
28	Agujero negro	78574985	2014-12-06T00:31:10Z	isbn	0553176986
28	Agujero negro	78574985	2014-12-06T00:31:10Z	isbn	5884171625
32	Anarquía	78392998	2014-11-26T22:16:07Z	isbn	8483321491
35	América del Sur	78851256	2014-12-17T18:33:33Z	isbn	9780521362757
35	América del Sur	78851256	2014-12-17T18:33:33Z	isbn	8430606114
35	América del Sur	78851256	2014-12-17T18:33:33Z	isbn	0
35	América del Sur	78851256	2014-12-17T18:33:33Z	isbn	9789211263404
36	Asia	78750372	2014-12-13T19:06:13Z	isbn	9788484329305
36	Asia	78750372	2014-12-13T19:06:13Z	isbn	9780060470012
36	Asia	78750372	2014-12-13T19:06:13Z	isbn	8484327183
39	Afganistán	78789652	2014-12-15T03:08:38Z	isbn	9788447534845
39	Afganistán	78789652	2014-12-15T03:08:38Z	isbn	9788499920870
39	Afganistán	78789652	2014-12-15T03:08:38Z	isbn	9780802085535
40	Arqueología	78343812	2014-11-24T22:23:53Z	isbn	9788434466791
40	Arqueología	78343812	2014-11-24T22:23:53Z	isbn	9788446001249
40	Arqueología	78343812	2014-11-24T22:23:53Z	isbn	8434466236
40	Arqueología	78343812	2014-11-24T22:23:53Z	isbn	9788434452312
40	Arqueología	78343812	2014-11-24T22:23:53Z	isbn	8446002345
40	Arqueología	78343812	2014-11-24T22:23:53Z	isbn	9788446025900
40	Arqueología	78343812	2014-11-24T22:23:53Z	isbn	8483380110
51	Autogiro	74029566	2014-04-26T09:23:30Z	isbn	9780521858601
51	Autogiro	74029566	2014-04-26T09:23:30Z	isbn	9788486459598
53	Albert Einstein	78616572	2014-12-08T09:29:17Z	isbn	950516307X
53	Albert Einstein	78616572	2014-12-08T09:29:17Z	isbn	8475930549
53	Albert Einstein	78616572	2014-12-08T09:29:17Z	isbn	1573928577
53	Albert Einstein	78616572	2014-12-08T09:29:17Z	isbn	9788483067888
53	Albert Einstein	78616572	2014-12-08T09:29:17Z	isbn	8484326373
53	Albert Einstein	78616572	2014-12-08T09:29:17Z	isbn	8493051632
53	Albert Einstein	78616572	2014-12-08T09:29:17Z	isbn	8497055586
53	Albert Einstein	78616572	2014-12-08T09:29:17Z	isbn	9684063563
53	Albert Einstein	78616572	2014-12-08T09:29:17Z	isbn	0380441233
53	Albert Einstein	78616572	2014-12-08T09:29:17Z	isbn	842268490X
53	Albert Einstein	78616572	2014-12-08T09:29:17Z	isbn	8445070894
53	Albert Einstein	78616572	2014-12-08T09:29:17Z	isbn	978
53	Albert Einstein	78616572	2014-12-08T09:29:17Z	isbn	8441502471
53	Albert Einstein	78616572	2014-12-08T09:29:17Z	isbn	9562420140
53	Albert Einstein	78616572	2014-12-08T09:29:17Z	isbn	8439547307
53	Albert Einstein	78616572	2014-12-08T09:29:17Z	isbn	8495348179
53	Albert Einstein	78616572	2014-12-08T09:29:17Z	isbn	84
53	Albert Einstein	78616572	2014-12-08T09:29:17Z	isbn	0806513500
53	Albert Einstein	78616572	2014-12-08T09:29:17Z	isbn	8423992365
53	Albert Einstein	78616572	2014-12-08T09:29:17Z	isbn	0716750112
53	Albert Einstein	78616572	2014-12-08T09:29:17Z	isbn	8479025573
53	Albert Einstein	78616572	2014-12-08T09:29:17Z	isbn	0195204387
56	Apiaceae	68484429	2013-07-20T11:46:29Z	isbn	8188237167
56	Apiaceae	68484429	2013-07-20T11:46:29Z	doi	10.1016/j.bmc.2009.05.006
62	Antipartícula	75068446	2014-06-16T19:40:01Z	isbn	0521550017
71	Ajedrez	78724975	2014-12-12T09:11:41Z	isbn	8470052233
71	Ajedrez	78724975	2014-12-12T09:11:41Z	isbn	0713455268
71	Ajedrez	78724975	2014-12-12T09:11:41Z	isbn	8470050931
71	Ajedrez	78724975	2014-12-12T09:11:41Z	isbn	9788492751860
71	Ajedrez	78724975	2014-12-12T09:11:41Z	isbn	1563082713
71	Ajedrez	78724975	2014-12-12T09:11:41Z	isbn	8420614033
71	Ajedrez	78724975	2014-12-12T09:11:41Z	isbn	1606208977
71	Ajedrez	78724975	2014-12-12T09:11:41Z	isbn	8486437911
71	Ajedrez	78724975	2014-12-12T09:11:41Z	isbn	8470051571
71	Ajedrez	78724975	2014-12-12T09:11:41Z	isbn	0198661649
71	Ajedrez	78724975	2014-12-12T09:11:41Z	isbn	8439515308
71	Ajedrez	78724975	2014-12-12T09:11:41Z	isbn	0668047216
71	Ajedrez	78724975	2014-12-12T09:11:41Z	isbn	0313327726
71	Ajedrez	78724975	2014-12-12T09:11:41Z	isbn	0936317019
74	Alcaloide	78122072	2014-11-13T14:29:09Z	isbn	8448602587
76	Alfabeto griego	78735641	2014-12-12T20:53:11Z	isbn	8420621552
76	Alfabeto griego	78735641	2014-12-12T20:53:11Z	isbn	2228889768
76	Alfabeto griego	78735641	2014-12-12T20:53:11Z	isbn	8429482563
76	Alfabeto griego	78735641	2014-12-12T20:53:11Z	isbn	8476769644
80	América	78817230	2014-12-16T03:05:51Z	isbn	0941419622
80	América	78817230	2014-12-16T03:05:51Z	doi	10.1002/grl.50838
80	América	78817230	2014-12-16T03:05:51Z	isbn	8478190449
80	América	78817230	2014-12-16T03:05:51Z	isbn	9978223630
80	América	78817230	2014-12-16T03:05:51Z	isbn	3828907415
83	Agujero de gusano	78209942	2014-11-18T06:08:43Z	arxiv	gr-qc/0409090
83	Agujero de gusano	78209942	2014-11-18T06:08:43Z	doi	10.1103/PhysRevLett.61.1446
83	Agujero de gusano	78209942	2014-11-18T06:08:43Z	arxiv	gr-qc/0503077
83	Agujero de gusano	78209942	2014-11-18T06:08:43Z	arxiv	gr-qc/0204022
83	Agujero de gusano	78209942	2014-11-18T06:08:43Z	arxiv	gr-qc/0409015
83	Agujero de gusano	78209942	2014-11-18T06:08:43Z	arxiv	gr-qc/0409053
83	Agujero de gusano	78209942	2014-11-18T06:08:43Z	doi	10.1103/PhysRevD.39.3182
83	Agujero de gusano	78209942	2014-11-18T06:08:43Z	arxiv	gr-qc/9712033
83	Agujero de gusano	78209942	2014-11-18T06:08:43Z	isbn	9582410922
83	Agujero de gusano	78209942	2014-11-18T06:08:43Z	arxiv	gr-qc/0205055
83	Agujero de gusano	78209942	2014-11-18T06:08:43Z	arxiv	hep-th/0102143
83	Agujero de gusano	78209942	2014-11-18T06:08:43Z	arxiv	gr-qc/9612013
83	Agujero de gusano	78209942	2014-11-18T06:08:43Z	arxiv	gr-qc/0009072
83	Agujero de gusano	78209942	2014-11-18T06:08:43Z	arxiv	gr-qc/0207057
83	Agujero de gusano	78209942	2014-11-18T06:08:43Z	arxiv	gr-qc/9803098
83	Agujero de gusano	78209942	2014-11-18T06:08:43Z	arxiv	gr-qc/9608059
83	Agujero de gusano	78209942	2014-11-18T06:08:43Z	arxiv	gr-qc/0409007
85	Asteraceae	78169669	2014-11-16T00:41:19Z	isbn	0126444609
85	Asteraceae	78169669	2014-11-16T00:41:19Z	isbn	9780878934072
85	Asteraceae	78169669	2014-11-16T00:41:19Z	isbn	0387079343
85	Asteraceae	78169669	2014-11-16T00:41:19Z	isbn	9780126444605
86	Alismataceae	71685813	2014-01-02T18:40:56Z	doi	10.1111/j.1095-8339.2009.01000.x
86	Alismataceae	71685813	2014-01-02T18:40:56Z	isbn	9780126444605
86	Alismataceae	71685813	2014-01-02T18:40:56Z	isbn	0126444609
86	Alismataceae	71685813	2014-01-02T18:40:56Z	isbn	9780878934072
86	Alismataceae	71685813	2014-01-02T18:40:56Z	doi	10.1046/j.1095-8339.2003.t01-1-00158.x
86	Alismataceae	71685813	2014-01-02T18:40:56Z	doi	10.1111/j.1095-8339.2009.01000.x/pdf
87	Agavoideae	68167674	2013-07-06T00:30:06Z	doi	10.1046/j.1095-8339.2003.t01-1-00158.x
87	Agavoideae	68167674	2013-07-06T00:30:06Z	isbn	0126444609
87	Agavoideae	68167674	2013-07-06T00:30:06Z	isbn	9780878934072
87	Agavoideae	68167674	2013-07-06T00:30:06Z	isbn	9780126444605
88	Amaryllidoideae	66988760	2013-05-18T21:24:37Z	isbn	0126444609
88	Amaryllidoideae	66988760	2013-05-18T21:24:37Z	isbn	9780878934072
88	Amaryllidoideae	66988760	2013-05-18T21:24:37Z	isbn	9780126444605
90	Arecaceae	76794538	2014-09-05T13:41:23Z	doi	10.1111/j.1095-8339.2009.01000.x
90	Arecaceae	76794538	2014-09-05T13:41:23Z	isbn	9780126444605
90	Arecaceae	76794538	2014-09-05T13:41:23Z	isbn	0126444609
90	Arecaceae	76794538	2014-09-05T13:41:23Z	isbn	9780878934072
90	Arecaceae	76794538	2014-09-05T13:41:23Z	isbn	8471149893
90	Arecaceae	76794538	2014-09-05T13:41:23Z	doi	10.1046/j.1095-8339.2003.t01-1-00158.x
90	Arecaceae	76794538	2014-09-05T13:41:23Z	isbn	8448601823
90	Arecaceae	76794538	2014-09-05T13:41:23Z	doi	10.1111/j.1095-8339.2006.00521.x
90	Arecaceae	76794538	2014-09-05T13:41:23Z	doi	10.1111/j.1095-8339.2009.01000.x/pdf
91	Araceae	71074883	2013-11-29T09:25:32Z	doi	10.1046/j.1095-8339.2003.t01-1-00158.x
91	Araceae	71074883	2013-11-29T09:25:32Z	isbn	0126444609
91	Araceae	71074883	2013-11-29T09:25:32Z	isbn	9780878934072
91	Araceae	71074883	2013-11-29T09:25:32Z	isbn	9780126444605
91	Araceae	71074883	2013-11-29T09:25:32Z	doi	10.1111/j.1095-8339.2009.01000.x
92	Amperio	74507209	2014-05-19T21:21:19Z	isbn	1567000479
92	Amperio	74507209	2014-05-19T21:21:19Z	isbn	0849378982
93	Antonio Vivaldi	78706403	2014-12-11T15:19:16Z	isbn	3201016772
93	Antonio Vivaldi	78706403	2014-12-11T15:19:16Z	isbn	0226468429
93	Antonio Vivaldi	78706403	2014-12-11T15:19:16Z	isbn	9789635308545
93	Antonio Vivaldi	78706403	2014-12-11T15:19:16Z	isbn	9782213637617
93	Antonio Vivaldi	78706403	2014-12-11T15:19:16Z	isbn	9780060890520
93	Antonio Vivaldi	78706403	2014-12-11T15:19:16Z	isbn	9780955410017
93	Antonio Vivaldi	78706403	2014-12-11T15:19:16Z	isbn	0486281515
93	Antonio Vivaldi	78706403	2014-12-11T15:19:16Z	isbn	1574670158
93	Antonio Vivaldi	78706403	2014-12-11T15:19:16Z	isbn	0393097455
93	Antonio Vivaldi	78706403	2014-12-11T15:19:16Z	isbn	3499503387
93	Antonio Vivaldi	78706403	2014-12-11T15:19:16Z	isbn	9781584152415
93	Antonio Vivaldi	78706403	2014-12-11T15:19:16Z	isbn	1855017881
93	Antonio Vivaldi	78706403	2014-12-11T15:19:16Z	isbn	3795903386
93	Antonio Vivaldi	78706403	2014-12-11T15:19:16Z	isbn	9781574670158
93	Antonio Vivaldi	78706403	2014-12-11T15:19:16Z	isbn	9783890074689
93	Antonio Vivaldi	78706403	2014-12-11T15:19:16Z	isbn	8845256405
93	Antonio Vivaldi	78706403	2014-12-11T15:19:16Z	isbn	8822256824
93	Antonio Vivaldi	78706403	2014-12-11T15:19:16Z	isbn	3458339175
101	Archaea	78702824	2014-12-11T13:34:18Z	pmid	18664583
101	Archaea	78702824	2014-12-11T13:34:18Z	pmid	10949309
101	Archaea	78702824	2014-12-11T13:34:18Z	pmid	270744
101	Archaea	78702824	2014-12-11T13:34:18Z	doi	10.1038/20601
101	Archaea	78702824	2014-12-11T13:34:18Z	doi	10.1080/106351501750435040
101	Archaea	78702824	2014-12-11T13:34:18Z	doi	10.1073/pnas.241636498v1
101	Archaea	78702824	2014-12-11T13:34:18Z	pmid	2497353
101	Archaea	78702824	2014-12-11T13:34:18Z	doi	10.1073/pnas.0502030102
101	Archaea	78702824	2014-12-11T13:34:18Z	pmid	15630422
101	Archaea	78702824	2014-12-11T13:34:18Z	pmid	16163344
101	Archaea	78702824	2014-12-11T13:34:18Z	pmc	145348
101	Archaea	78702824	2014-12-11T13:34:18Z	pmid	16983194
101	Archaea	78702824	2014-12-11T13:34:18Z	doi	10.1073/pnas.0810647105
101	Archaea	78702824	2014-12-11T13:34:18Z	pmid	15791728
101	Archaea	78702824	2014-12-11T13:34:18Z	pmc	2258681
101	Archaea	78702824	2014-12-11T13:34:18Z	pmc	1448633
101	Archaea	78702824	2014-12-11T13:34:18Z	pmid	15314221
101	Archaea	78702824	2014-12-11T13:34:18Z	doi	10.1101/gr.6454307
101	Archaea	78702824	2014-12-11T13:34:18Z	pmid	10360571
101	Archaea	78702824	2014-12-11T13:34:18Z	doi	10.1146/annurev.bi.59.070190.002035
101	Archaea	78702824	2014-12-11T13:34:18Z	pmid	12694606
101	Archaea	78702824	2014-12-11T13:34:18Z	pmid	8692799
101	Archaea	78702824	2014-12-11T13:34:18Z	pmid	9084754
101	Archaea	78702824	2014-12-11T13:34:18Z	pmid	15994761
101	Archaea	78702824	2014-12-11T13:34:18Z	doi	10.1073/pnas.0914470107
101	Archaea	78702824	2014-12-11T13:34:18Z	pmid	10446042
101	Archaea	78702824	2014-12-11T13:34:18Z	pmid	165139821
101	Archaea	78702824	2014-12-11T13:34:18Z	pmid	18535141
101	Archaea	78702824	2014-12-11T13:34:18Z	doi	10.1038/331184a0
101	Archaea	78702824	2014-12-11T13:34:18Z	doi	10.1073/pnas.0602187103
101	Archaea	78702824	2014-12-11T13:34:18Z	doi	10.1128/JCM.44.4.1274-1282.2006
101	Archaea	78702824	2014-12-11T13:34:18Z	pmid	5876245
101	Archaea	78702824	2014-12-11T13:34:18Z	pmid	20421484
101	Archaea	78702824	2014-12-11T13:34:18Z	pmid	20129918
101	Archaea	78702824	2014-12-11T13:34:18Z	pmid	11233158
101	Archaea	78702824	2014-12-11T13:34:18Z	pmid	17908824
101	Archaea	78702824	2014-12-11T13:34:18Z	pmid	11250034
101	Archaea	78702824	2014-12-11T13:34:18Z	pmid	11391463
101	Archaea	78702824	2014-12-11T13:34:18Z	pmid	11536899
101	Archaea	78702824	2014-12-11T13:34:18Z	doi	10.1038/nrmicro1619
101	Archaea	78702824	2014-12-11T13:34:18Z	pmid	10890353
101	Archaea	78702824	2014-12-11T13:34:18Z	doi	10.1038/nature04157
101	Archaea	78702824	2014-12-11T13:34:18Z	pmid	12576018
101	Archaea	78702824	2014-12-11T13:34:18Z	pmid	14579252
101	Archaea	78702824	2014-12-11T13:34:18Z	pmid	17061212
101	Archaea	78702824	2014-12-11T13:34:18Z	doi	10.1016/S0168-6496(03)00028-X
101	Archaea	78702824	2014-12-11T13:34:18Z	pmid	11900115
101	Archaea	78702824	2014-12-11T13:34:18Z	doi	10.1016/j.tim.2004.12.001
101	Archaea	78702824	2014-12-11T13:34:18Z	doi	10.1002/bies.10354
101	Archaea	78702824	2014-12-11T13:34:18Z	pmid	16257257
101	Archaea	78702824	2014-12-11T13:34:18Z	isbn	9781904455271
101	Archaea	78702824	2014-12-11T13:34:18Z	pmid	15851674
101	Archaea	78702824	2014-12-11T13:34:18Z	pmid	15965028
101	Archaea	78702824	2014-12-11T13:34:18Z	doi	10.1038/35020614
101	Archaea	78702824	2014-12-11T13:34:18Z	pmc	103747
101	Archaea	78702824	2014-12-11T13:34:18Z	doi	10.1271/bbb.69.2019
101	Archaea	78702824	2014-12-11T13:34:18Z	pmid	16163343
101	Archaea	78702824	2014-12-11T13:34:18Z	doi	10.1073/pnas.87.12.4576
101	Archaea	78702824	2014-12-11T13:34:18Z	pmid	15046572
101	Archaea	78702824	2014-12-11T13:34:18Z	doi	10.1159/000094053
101	Archaea	78702824	2014-12-11T13:34:18Z	doi	10.1007/s002480000087
101	Archaea	78702824	2014-12-11T13:34:18Z	pmid	12694608
101	Archaea	78702824	2014-12-11T13:34:18Z	pmid	20409658
101	Archaea	78702824	2014-12-11T13:34:18Z	doi	10.1385/ABAB:97:1:45
101	Archaea	78702824	2014-12-11T13:34:18Z	doi	10.1073/pnas.0706358104
101	Archaea	78702824	2014-12-11T13:34:18Z	doi	10.1016/j.resmic.2005.07.008
101	Archaea	78702824	2014-12-11T13:34:18Z	pmid	15528644
101	Archaea	78702824	2014-12-11T13:34:18Z	pmid	8177167
101	Archaea	78702824	2014-12-11T13:34:18Z	pmid	19719632
101	Archaea	78702824	2014-12-11T13:34:18Z	doi	10.1080/10408410091154219
101	Archaea	78702824	2014-12-11T13:34:18Z	doi	10.1128/JB.01454-06
101	Archaea	78702824	2014-12-11T13:34:18Z	pmid	16597851
101	Archaea	78702824	2014-12-11T13:34:18Z	pmid	19073919
101	Archaea	78702824	2014-12-11T13:34:18Z	pmid	10477309
101	Archaea	78702824	2014-12-11T13:34:18Z	pmid	9767564
101	Archaea	78702824	2014-12-11T13:34:18Z	doi	10.1038/nature07174
101	Archaea	78702824	2014-12-11T13:34:18Z	pmid	10966867
101	Archaea	78702824	2014-12-11T13:34:18Z	pmid	11319120
101	Archaea	78702824	2014-12-11T13:34:18Z	pmid	14566062
101	Archaea	78702824	2014-12-11T13:34:18Z	isbn	9781904455356
101	Archaea	78702824	2014-12-11T13:34:18Z	doi	10.1099/mic.0.25948-0
101	Archaea	78702824	2014-12-11T13:34:18Z	pmid	18948954
101	Archaea	78702824	2014-12-11T13:34:18Z	doi	10.1128/JB.182.4.859-868.2000
101	Archaea	78702824	2014-12-11T13:34:18Z	doi	10.1073/pnas.93.17.9188
101	Archaea	78702824	2014-12-11T13:34:18Z	pmid	8374067
101	Archaea	78702824	2014-12-11T13:34:18Z	pmid	16997562
101	Archaea	78702824	2014-12-11T13:34:18Z	doi	10.1007/BF00248708
101	Archaea	78702824	2014-12-11T13:34:18Z	pmid	10677847
101	Archaea	78702824	2014-12-11T13:34:18Z	pmid	16754604
101	Archaea	78702824	2014-12-11T13:34:18Z	doi	10.1007/s00253-004-1790-4
101	Archaea	78702824	2014-12-11T13:34:18Z	pmc	22660
101	Archaea	78702824	2014-12-11T13:34:18Z	pmc	2857094
101	Archaea	78702824	2014-12-11T13:34:18Z	pmid	16306681
101	Archaea	78702824	2014-12-11T13:34:18Z	doi	10.1128/IAI.71.2.591-596.2003
101	Archaea	78702824	2014-12-11T13:34:18Z	pmid	16527752
101	Archaea	78702824	2014-12-11T13:34:18Z	pmc	3082918
101	Archaea	78702824	2014-12-11T13:34:18Z	doi	10.1038/nrm2861
101	Archaea	78702824	2014-12-11T13:34:18Z	pmid	16754611
101	Archaea	78702824	2014-12-11T13:34:18Z	pmc	1395357
101	Archaea	78702824	2014-12-11T13:34:18Z	pmc	240731
101	Archaea	78702824	2014-12-11T13:34:18Z	pmc	515073
101	Archaea	78702824	2014-12-11T13:34:18Z	doi	10.2741/albers
101	Archaea	78702824	2014-12-11T13:34:18Z	pmc	1578735
101	Archaea	78702824	2014-12-11T13:34:18Z	pmid	17185602
101	Archaea	78702824	2014-12-11T13:34:18Z	pmc	395942
101	Archaea	78702824	2014-12-11T13:34:18Z	doi	10.1016/S0959-437X(98)80032-4
101	Archaea	78702824	2014-12-11T13:34:18Z	doi	10.1080/10408410091154174
101	Archaea	78702824	2014-12-11T13:34:18Z	doi	10.1007/BF00408082
101	Archaea	78702824	2014-12-11T13:34:18Z	doi	10.1038/ismej.2007.90
101	Archaea	78702824	2014-12-11T13:34:18Z	pmid	17739984
101	Archaea	78702824	2014-12-11T13:34:18Z	pmid	12116647
101	Archaea	78702824	2014-12-11T13:34:18Z	pmid	9184013
101	Archaea	78702824	2014-12-11T13:34:18Z	pmid	11713183
101	Archaea	78702824	2014-12-11T13:34:18Z	isbn	1555813917
101	Archaea	78702824	2014-12-11T13:34:18Z	doi	10.1098/rstb.2006.1841
101	Archaea	78702824	2014-12-11T13:34:18Z	pmid	16236543
101	Archaea	78702824	2014-12-11T13:34:18Z	pmid	11864374
101	Archaea	78702824	2014-12-11T13:34:18Z	isbn	0131443291
101	Archaea	78702824	2014-12-11T13:34:18Z	doi	10.1186/gb-2002-3-2-reviews0003
101	Archaea	78702824	2014-12-11T13:34:18Z	pmc	2889320
101	Archaea	78702824	2014-12-11T13:34:18Z	pmid	18501543
101	Archaea	78702824	2014-12-11T13:34:18Z	isbn	9780387241432
101	Archaea	78702824	2014-12-11T13:34:18Z	doi	10.1073/pnas.74.11.5088
101	Archaea	78702824	2014-12-11T13:34:18Z	doi	10.1038/nature12352
101	Archaea	78702824	2014-12-11T13:34:18Z	doi	10.1111/j.1574-6976.2001.tb00575.x
101	Archaea	78702824	2014-12-11T13:34:18Z	doi	10.1146/annurev.physiol.66.032102.150049
101	Archaea	78702824	2014-12-11T13:34:18Z	doi	10.1038/339145a0
101	Archaea	78702824	2014-12-11T13:34:18Z	pmid	15340788
101	Archaea	78702824	2014-12-11T13:34:18Z	pmid	16376523
101	Archaea	78702824	2014-12-11T13:34:18Z	isbn	019538850X
101	Archaea	78702824	2014-12-11T13:34:18Z	doi	10.1038/ismej.2007.8
101	Archaea	78702824	2014-12-11T13:34:18Z	pmc	2490668
101	Archaea	78702824	2014-12-11T13:34:18Z	pmid	17603112
101	Archaea	78702824	2014-12-11T13:34:18Z	doi	10.1101/gr.3666505
101	Archaea	78702824	2014-12-11T13:34:18Z	pmid	18043610
101	Archaea	78702824	2014-12-11T13:34:18Z	pmid	15067114
101	Archaea	78702824	2014-12-11T13:34:18Z	isbn	0131968939
101	Archaea	78702824	2014-12-11T13:34:18Z	pmc	2770514
101	Archaea	78702824	2014-12-11T13:34:18Z	doi	10.1093/molbev/msn108
101	Archaea	78702824	2014-12-11T13:34:18Z	doi	10.1128/JVI.79.14.8677-8686.2005
101	Archaea	78702824	2014-12-11T13:34:18Z	doi	10.1126/science.217.4554.65
101	Archaea	78702824	2014-12-11T13:34:18Z	doi	10.1016/S0065-2911(08)60135-6
101	Archaea	78702824	2014-12-11T13:34:18Z	doi	10.1038/nature03911
101	Archaea	78702824	2014-12-11T13:34:18Z	pmid	14527284
101	Archaea	78702824	2014-12-11T13:34:18Z	doi	10.1073/pnas.0308766101
101	Archaea	78702824	2014-12-11T13:34:18Z	pmid	9144246
101	Archaea	78702824	2014-12-11T13:34:18Z	pmid	15520287
101	Archaea	78702824	2014-12-11T13:34:18Z	doi	10.1194/jlr.M200148-JLR200
101	Archaea	78702824	2014-12-11T13:34:18Z	pmid	17621634
101	Archaea	78702824	2014-12-11T13:34:18Z	doi	10.1016/j.tim.2006.09.001
101	Archaea	78702824	2014-12-11T13:34:18Z	pmid	17041631
101	Archaea	78702824	2014-12-11T13:34:18Z	pmid	18180743
101	Archaea	78702824	2014-12-11T13:34:18Z	pmid	18165302
101	Archaea	78702824	2014-12-11T13:34:18Z	doi	10.1073/pnas.0801980105
101	Archaea	78702824	2014-12-11T13:34:18Z	pmc	2464739
101	Archaea	78702824	2014-12-11T13:34:18Z	doi	10.1098/rstb.2006.1834
101	Archaea	78702824	2014-12-11T13:34:18Z	pmc	232610
101	Archaea	78702824	2014-12-11T13:34:18Z	pmid	18463089
101	Archaea	78702824	2014-12-11T13:34:18Z	doi	10.3354/meps273089
101	Archaea	78702824	2014-12-11T13:34:18Z	doi	10.1146/annurev.micro.57.030502.090759
101	Archaea	78702824	2014-12-11T13:34:18Z	pmid	9914204
101	Archaea	78702824	2014-12-11T13:34:18Z	pmid	17189356
101	Archaea	78702824	2014-12-11T13:34:18Z	doi	10.1016/0022-5193(65)90083-4
101	Archaea	78702824	2014-12-11T13:34:18Z	doi	10.1007/s00203-004-0696-y
101	Archaea	78702824	2014-12-11T13:34:18Z	doi	10.1073/pnas.1735403100
101	Archaea	78702824	2014-12-11T13:34:18Z	pmid	17359272
101	Archaea	78702824	2014-12-11T13:34:18Z	doi	10.1111/j.1462-2920.2006.01227.x
101	Archaea	78702824	2014-12-11T13:34:18Z	pmid	7635827
101	Archaea	78702824	2014-12-11T13:34:18Z	isbn	9780123749802
101	Archaea	78702824	2014-12-11T13:34:18Z	doi	10.1139/w05-147
101	Archaea	78702824	2014-12-11T13:34:18Z	pmid	9243022
101	Archaea	78702824	2014-12-11T13:34:18Z	pmid	11986665
101	Archaea	78702824	2014-12-11T13:34:18Z	pmid	11206545
101	Archaea	78702824	2014-12-11T13:34:18Z	pmid	10716711
101	Archaea	78702824	2014-12-11T13:34:18Z	pmid	16915287
101	Archaea	78702824	2014-12-11T13:34:18Z	isbn	1405144041
101	Archaea	78702824	2014-12-11T13:34:18Z	doi	10.1126/science.1149976
101	Archaea	78702824	2014-12-11T13:34:18Z	pmc	92875
101	Archaea	78702824	2014-12-11T13:34:18Z	pmid	10648507
101	Archaea	78702824	2014-12-11T13:34:18Z	pmid	9889982
101	Archaea	78702824	2014-12-11T13:34:18Z	pmid	15680761
101	Archaea	78702824	2014-12-11T13:34:18Z	pmid	15630514
101	Archaea	78702824	2014-12-11T13:34:18Z	pmid	15803645
101	Archaea	78702824	2014-12-11T13:34:18Z	pmid	17347520
101	Archaea	78702824	2014-12-11T13:34:18Z	pmid	14977418
101	Archaea	78702824	2014-12-11T13:34:18Z	doi	10.1099/mic.0.27303-0
101	Archaea	78702824	2014-12-11T13:34:18Z	doi	10.1038/441289a
101	Archaea	78702824	2014-12-11T13:34:18Z	doi	10.1074/jbc.M110.102236
101	Archaea	78702824	2014-12-11T13:34:18Z	pmid	3083222
101	Archaea	78702824	2014-12-11T13:34:18Z	doi	10.1016/S0959-437X(05)80206-0
101	Archaea	78702824	2014-12-11T13:34:18Z	pmid	10508726
101	Archaea	78702824	2014-12-11T13:34:18Z	pmid	18641632
101	Archaea	78702824	2014-12-11T13:34:18Z	pmid	10782339
101	Archaea	78702824	2014-12-11T13:34:18Z	pmid	11451524
101	Archaea	78702824	2014-12-11T13:34:18Z	pmid	16545108
101	Archaea	78702824	2014-12-11T13:34:18Z	pmid	17653987
101	Archaea	78702824	2014-12-11T13:34:18Z	doi	10.1002/bies.20616
101	Archaea	78702824	2014-12-11T13:34:18Z	pmc	372949
101	Archaea	78702824	2014-12-11T13:34:18Z	doi	10.1101/gr.2700304
101	Archaea	78702824	2014-12-11T13:34:18Z	doi	10.1038/417063a
101	Archaea	78702824	2014-12-11T13:34:18Z	doi	10.1016/j.mib.2006.08.003
101	Archaea	78702824	2014-12-11T13:34:18Z	doi	10.1038/nature07381
101	Archaea	78702824	2014-12-11T13:34:18Z	doi	10.1073/pnas.0712334105
101	Archaea	78702824	2014-12-11T13:34:18Z	pmid	16177789
101	Archaea	78702824	2014-12-11T13:34:18Z	pmid	10556324
101	Archaea	78702824	2014-12-11T13:34:18Z	pmid	9618502
101	Archaea	78702824	2014-12-11T13:34:18Z	doi	10.1038/nature04983
101	Archaea	78702824	2014-12-11T13:34:18Z	doi	10.1073/pnas.0405075101
101	Archaea	78702824	2014-12-11T13:34:18Z	isbn	0195111834
101	Archaea	78702824	2014-12-11T13:34:18Z	doi	10.1126/science.1132690
101	Archaea	78702824	2014-12-11T13:34:18Z	doi	10.1073/pnas.93.13.6241
101	Archaea	78702824	2014-12-11T13:34:18Z	doi	10.1023/A:1006515817767
101	Archaea	78702824	2014-12-11T13:34:18Z	pmid	17062409
101	Archaea	78702824	2014-12-11T13:34:18Z	pmid	10438790
101	Archaea	78702824	2014-12-11T13:34:18Z	pmid	17715057
101	Archaea	78702824	2014-12-11T13:34:18Z	pmid	12540534
101	Archaea	78702824	2014-12-11T13:34:18Z	pmid	16541146
101	Archaea	78702824	2014-12-11T13:34:18Z	doi	10.1126/science.285.5430.1033
101	Archaea	78702824	2014-12-11T13:34:18Z	pmid	8799176
101	Archaea	78702824	2014-12-11T13:34:18Z	pmid	10843038
101	Archaea	78702824	2014-12-11T13:34:18Z	pmid	15803654
101	Archaea	78702824	2014-12-11T13:34:18Z	pmid	1822288
101	Archaea	78702824	2014-12-11T13:34:18Z	doi	10.1080/10408410701451948
101	Archaea	78702824	2014-12-11T13:34:18Z	doi	10.1128/MMBR.00033-06
101	Archaea	78702824	2014-12-11T13:34:18Z	doi	10.1098/rstb.2006.1914
101	Archaea	78702824	2014-12-11T13:34:18Z	doi	10.1038/nature04158
101	Archaea	78702824	2014-12-11T13:34:18Z	doi	10.1128/JB.01731-07
101	Archaea	78702824	2014-12-11T13:34:18Z	pmid	16710401
101	Archaea	78702824	2014-12-11T13:34:18Z	doi	10.1093/embo-reports/kve238
101	Archaea	78702824	2014-12-11T13:34:18Z	pmid	15866034
101	Archaea	78702824	2014-12-11T13:34:18Z	pmid	2112744
101	Archaea	78702824	2014-12-11T13:34:18Z	doi	10.1128/AEM.67.5.2336-2344.2001
101	Archaea	78702824	2014-12-11T13:34:18Z	pmid	18079405
101	Archaea	78702824	2014-12-11T13:34:18Z	pmid	16782812
101	Archaea	78702824	2014-12-11T13:34:18Z	pmid	17062410
101	Archaea	78702824	2014-12-11T13:34:18Z	doi	10.1016/S1369-5274(00)00190-9
101	Archaea	78702824	2014-12-11T13:34:18Z	pmid	6161309
101	Archaea	78702824	2014-12-11T13:34:18Z	doi	10.1073/pnas.050564797
101	Archaea	78702824	2014-12-11T13:34:18Z	pmid	15040259
101	Archaea	78702824	2014-12-11T13:34:18Z	doi	10.1006/jsbi.1998.4070
101	Archaea	78702824	2014-12-11T13:34:18Z	pmid	10049812
101	Archaea	78702824	2014-12-11T13:34:18Z	doi	10.1126/science.1110591
101	Archaea	78702824	2014-12-11T13:34:18Z	pmid	17334387
101	Archaea	78702824	2014-12-11T13:34:18Z	pmid	15831718
101	Archaea	78702824	2014-12-11T13:34:18Z	pmid	153371581
101	Archaea	78702824	2014-12-11T13:34:18Z	doi	10.1046/j.1462-2920.2000.00131.x
101	Archaea	78702824	2014-12-11T13:34:18Z	doi	10.1073/pnas.95.12.6854
101	Archaea	78702824	2014-12-11T13:34:18Z	pmid	3340165
101	Archaea	78702824	2014-12-11T13:34:18Z	doi	10.1038/289095a0
101	Archaea	78702824	2014-12-11T13:34:18Z	pmid	10805560
101	Archaea	78702824	2014-12-11T13:34:18Z	pmid	11282478
101	Archaea	78702824	2014-12-11T13:34:18Z	pmc	1479766
101	Archaea	78702824	2014-12-11T13:34:18Z	doi	10.1016/j.syapm.2008.02.003
101	Archaea	78702824	2014-12-11T13:34:18Z	pmid	12364548
101	Archaea	78702824	2014-12-11T13:34:18Z	pmid	12624192
101	Archaea	78702824	2014-12-11T13:34:18Z	doi	10.1098/rstb.2006.1915
101	Archaea	78702824	2014-12-11T13:34:18Z	doi	10.1038/35054051
101	Archaea	78702824	2014-12-11T13:34:18Z	doi	10.1534/genetics.107.072892
101	Archaea	78702824	2014-12-11T13:34:18Z	doi	10.1007/s000180050156
101	Archaea	78702824	2014-12-11T13:34:18Z	pmc	2629343
101	Archaea	78702824	2014-12-11T13:34:18Z	doi	10.1016/0923-2508(96)83998-2
101	Archaea	78702824	2014-12-11T13:34:18Z	pmid	2115763
119	Anthoxanthum	71985582	2014-01-18T21:26:29Z	isbn	9780901158420
142	Sierra de Atapuerca	78526948	2014-12-03T18:06:19Z	doi	10.1016/j.jas.2013.06.013
142	Sierra de Atapuerca	78526948	2014-12-03T18:06:19Z	isbn	8478464646
142	Sierra de Atapuerca	78526948	2014-12-03T18:06:19Z	isbn	9788496606289
142	Sierra de Atapuerca	78526948	2014-12-03T18:06:19Z	isbn	8450570662
142	Sierra de Atapuerca	78526948	2014-12-03T18:06:19Z	isbn	8423336484
142	Sierra de Atapuerca	78526948	2014-12-03T18:06:19Z	isbn	8489784655
144	Arco iris	78833794	2014-12-16T20:56:43Z	isbn	9788467034264
148	Alimento	78514831	2014-12-03T01:30:21Z	isbn	0521822904
148	Alimento	78514831	2014-12-03T01:30:21Z	isbn	9280809857
148	Alimento	78514831	2014-12-03T01:30:21Z	isbn	0822524848
148	Alimento	78514831	2014-12-03T01:30:21Z	isbn	0849304601
148	Alimento	78514831	2014-12-03T01:30:21Z	isbn	1588293076
148	Alimento	78514831	2014-12-03T01:30:21Z	isbn	0521626307
148	Alimento	78514831	2014-12-03T01:30:21Z	isbn	0415917107
148	Alimento	78514831	2014-12-03T01:30:21Z	isbn	1583670165
148	Alimento	78514831	2014-12-03T01:30:21Z	isbn	0684800012
148	Alimento	78514831	2014-12-03T01:30:21Z	isbn	0643068767
148	Alimento	78514831	2014-12-03T01:30:21Z	isbn	0736051864
148	Alimento	78514831	2014-12-03T01:30:21Z	isbn	0807004553
148	Alimento	78514831	2014-12-03T01:30:21Z	isbn	0202020428
148	Alimento	78514831	2014-12-03T01:30:21Z	isbn	0299142507
155	Avión	78840338	2014-12-17T02:50:06Z	isbn	9291947563
160	Alfabeto	78459430	2014-11-30T15:29:30Z	isbn	9587043685
161	Amstrad	77383816	2014-10-06T09:41:46Z	isbn	0330319000
163	Anaximandro	78504551	2014-12-02T17:14:47Z	isbn	9977645213
163	Anaximandro	78504551	2014-12-02T17:14:47Z	isbn	8446003880
165	Algoritmo genético	76753232	2014-09-03T10:40:52Z	isbn	9781409200734
187	Algoritmo	78754397	2014-12-13T22:53:23Z	isbn	9780071460514
187	Algoritmo	78754397	2014-12-13T22:53:23Z	isbn	089874833X
187	Algoritmo	78754397	2014-12-13T22:53:23Z	isbn	9780534950972
187	Algoritmo	78754397	2014-12-13T22:53:23Z	isbn	9684443242
187	Algoritmo	78754397	2014-12-13T22:53:23Z	isbn	0134977777
187	Algoritmo	78754397	2014-12-13T22:53:23Z	isbn	848966000X
187	Algoritmo	78754397	2014-12-13T22:53:23Z	isbn	9702606373
187	Algoritmo	78754397	2014-12-13T22:53:23Z	isbn	9780262533058
193	Anaxímenes	78522866	2014-12-03T14:41:04Z	isbn	9789588041728
207	Aféresis (fonética)	69520714	2013-09-09T12:20:34Z	isbn	9789681657413
207	Aféresis (fonética)	69520714	2013-09-09T12:20:34Z	isbn	9780786429899
207	Aféresis (fonética)	69520714	2013-09-09T12:20:34Z	isbn	9788450081435
207	Aféresis (fonética)	69520714	2013-09-09T12:20:34Z	isbn	9788476352960
208	Abreviatura	78668958	2014-12-10T08:12:21Z	isbn	1624680003
208	Abreviatura	78668958	2014-12-10T08:12:21Z	isbn	8483075008
230	Atletismo	76418535	2014-08-17T18:34:39Z	isbn	2204053414
230	Atletismo	76418535	2014-08-17T18:34:39Z	isbn	2700012275
230	Atletismo	76418535	2014-08-17T18:34:39Z	isbn	2251338128
230	Atletismo	76418535	2014-08-17T18:34:39Z	isbn	2221055403
230	Atletismo	76418535	2014-08-17T18:34:39Z	isbn	2708405969
230	Atletismo	76418535	2014-08-17T18:34:39Z	isbn	8480198052
230	Atletismo	76418535	2014-08-17T18:34:39Z	isbn	2200372388
230	Atletismo	76418535	2014-08-17T18:34:39Z	isbn	2877721140
230	Atletismo	76418535	2014-08-17T18:34:39Z	isbn	2760503445
230	Atletismo	76418535	2014-08-17T18:34:39Z	isbn	2830707273
235	Animalia	78837680	2014-12-17T00:07:36Z	isbn	0878930973
235	Animalia	78837680	2014-12-17T00:07:36Z	isbn	8477391777
235	Animalia	78837680	2014-12-17T00:07:36Z	isbn	8448145283
235	Animalia	78837680	2014-12-17T00:07:36Z	isbn	0131155385
239	Acacia	78305530	2014-11-23T13:08:59Z	isbn	9780849326752
240	Azur	75763944	2014-07-24T13:27:09Z	isbn	9871263253
240	Azur	75763944	2014-07-24T13:27:09Z	isbn	9780691139302
240	Azur	75763944	2014-07-24T13:27:09Z	isbn	9042005769
240	Azur	75763944	2014-07-24T13:27:09Z	isbn	9788446010838
240	Azur	75763944	2014-07-24T13:27:09Z	isbn	1555219322
240	Azur	75763944	2014-07-24T13:27:09Z	isbn	1855011549
248	Arte	78654194	2014-12-09T19:24:50Z	isbn	8476006691
248	Arte	78654194	2014-12-09T19:24:50Z	isbn	8437600855
248	Arte	78654194	2014-12-09T19:24:50Z	isbn	8430918973
248	Arte	78654194	2014-12-09T19:24:50Z	isbn	8476002408
248	Arte	78654194	2014-12-09T19:24:50Z	isbn	8420714089
248	Arte	78654194	2014-12-09T19:24:50Z	isbn	9788483060445
248	Arte	78654194	2014-12-09T19:24:50Z	isbn	8432097020
248	Arte	78654194	2014-12-09T19:24:50Z	isbn	8436813405
248	Arte	78654194	2014-12-09T19:24:50Z	isbn	8446020920
248	Arte	78654194	2014-12-09T19:24:50Z	isbn	8477745811
248	Arte	78654194	2014-12-09T19:24:50Z	isbn	8430939113
248	Arte	78654194	2014-12-09T19:24:50Z	isbn	843093930X
248	Arte	78654194	2014-12-09T19:24:50Z	isbn	8476004079
248	Arte	78654194	2014-12-09T19:24:50Z	isbn	9788498012934
248	Arte	78654194	2014-12-09T19:24:50Z	isbn	8481563773
248	Arte	78654194	2014-12-09T19:24:50Z	isbn	8426414680
248	Arte	78654194	2014-12-09T19:24:50Z	isbn	8477745803
248	Arte	78654194	2014-12-09T19:24:50Z	isbn	8440622619
248	Arte	78654194	2014-12-09T19:24:50Z	isbn	9788497932202
248	Arte	78654194	2014-12-09T19:24:50Z	isbn	8446008327
248	Arte	78654194	2014-12-09T19:24:50Z	isbn	0822327376
248	Arte	78654194	2014-12-09T19:24:50Z	isbn	8420602922
248	Arte	78654194	2014-12-09T19:24:50Z	isbn	8420641383
251	Albania	78290176	2014-11-22T15:14:29Z	isbn	9780880334150
251	Albania	78290176	2014-11-22T15:14:29Z	isbn	8477647933
252	Alemania	78813162	2014-12-15T23:06:39Z	isbn	0814713815
252	Alemania	78813162	2014-12-15T23:06:39Z	isbn	9789264040007
252	Alemania	78813162	2014-12-15T23:06:39Z	isbn	0141007230
252	Alemania	78813162	2014-12-15T23:06:39Z	isbn	0415254558
252	Alemania	78813162	2014-12-15T23:06:39Z	isbn	9780470089569
252	Alemania	78813162	2014-12-15T23:06:39Z	isbn	0198606788
252	Alemania	78813162	2014-12-15T23:06:39Z	isbn	0415201144
252	Alemania	78813162	2014-12-15T23:06:39Z	isbn	9780792236627
252	Alemania	78813162	2014-12-15T23:06:39Z	isbn	0521540712
252	Alemania	78813162	2014-12-15T23:06:39Z	isbn	0521301998
253	Angola	78455010	2014-11-30T05:01:42Z	isbn	8401601916
253	Angola	78455010	2014-11-30T05:01:42Z	pmid	17209199
253	Angola	78455010	2014-11-30T05:01:42Z	isbn	8401606098
258	Austria	78471584	2014-12-01T03:02:29Z	isbn	9681655435
259	Azerbaiyán	78208615	2014-11-18T03:26:04Z	isbn	0897749405
259	Azerbaiyán	78208615	2014-11-18T03:26:04Z	isbn	0817991824
259	Azerbaiyán	78208615	2014-11-18T03:26:04Z	isbn	9756782188
259	Azerbaiyán	78208615	2014-11-18T03:26:04Z	isbn	9781585678044
259	Azerbaiyán	78208615	2014-11-18T03:26:04Z	isbn	3895000701
259	Azerbaiyán	78208615	2014-11-18T03:26:04Z	isbn	0521522455
259	Azerbaiyán	78208615	2014-11-18T03:26:04Z	isbn	0739101692
259	Azerbaiyán	78208615	2014-11-18T03:26:04Z	isbn	9780810835504
259	Azerbaiyán	78208615	2014-11-18T03:26:04Z	isbn	9780814719459
259	Azerbaiyán	78208615	2014-11-18T03:26:04Z	isbn	0700706348
259	Azerbaiyán	78208615	2014-11-18T03:26:04Z	isbn	9781402012983
259	Azerbaiyán	78208615	2014-11-18T03:26:04Z	isbn	9789027231000
259	Azerbaiyán	78208615	2014-11-18T03:26:04Z	isbn	9780521200950
259	Azerbaiyán	78208615	2014-11-18T03:26:04Z	isbn	9780788177125
259	Azerbaiyán	78208615	2014-11-18T03:26:04Z	isbn	9785778400825
259	Azerbaiyán	78208615	2014-11-18T03:26:04Z	isbn	1857430581
259	Azerbaiyán	78208615	2014-11-18T03:26:04Z	isbn	0631222413
259	Azerbaiyán	78208615	2014-11-18T03:26:04Z	isbn	9781932805901
259	Azerbaiyán	78208615	2014-11-18T03:26:04Z	isbn	0313306109
259	Azerbaiyán	78208615	2014-11-18T03:26:04Z	isbn	1589012585
259	Azerbaiyán	78208615	2014-11-18T03:26:04Z	isbn	0275962415
259	Azerbaiyán	78208615	2014-11-18T03:26:04Z	isbn	9789027923288
259	Azerbaiyán	78208615	2014-11-18T03:26:04Z	isbn	9780415922739
259	Azerbaiyán	78208615	2014-11-18T03:26:04Z	isbn	0742500632
259	Azerbaiyán	78208615	2014-11-18T03:26:04Z	isbn	0465045766
259	Azerbaiyán	78208615	2014-11-18T03:26:04Z	isbn	9780521291385
259	Azerbaiyán	78208615	2014-11-18T03:26:04Z	isbn	0674309510
259	Azerbaiyán	78208615	2014-11-18T03:26:04Z	isbn	0199252750
259	Azerbaiyán	78208615	2014-11-18T03:26:04Z	isbn	9780830500765
259	Azerbaiyán	78208615	2014-11-18T03:26:04Z	isbn	0933273959
259	Azerbaiyán	78208615	2014-11-18T03:26:04Z	isbn	9781860646317
259	Azerbaiyán	78208615	2014-11-18T03:26:04Z	isbn	9004097961
259	Azerbaiyán	78208615	2014-11-18T03:26:04Z	isbn	0830500766
259	Azerbaiyán	78208615	2014-11-18T03:26:04Z	isbn	9780198297390
259	Azerbaiyán	78208615	2014-11-18T03:26:04Z	isbn	9780231070683
259	Azerbaiyán	78208615	2014-11-18T03:26:04Z	isbn	9788185689685
259	Azerbaiyán	78208615	2014-11-18T03:26:04Z	isbn	0195177754
259	Azerbaiyán	78208615	2014-11-18T03:26:04Z	isbn	9781845115524
259	Azerbaiyán	78208615	2014-11-18T03:26:04Z	isbn	0415781531
259	Azerbaiyán	78208615	2014-11-18T03:26:04Z	isbn	0700705015
259	Azerbaiyán	78208615	2014-11-18T03:26:04Z	isbn	9780333231111
259	Azerbaiyán	78208615	2014-11-18T03:26:04Z	isbn	9780739101698
259	Azerbaiyán	78208615	2014-11-18T03:26:04Z	isbn	038920577X
259	Azerbaiyán	78208615	2014-11-18T03:26:04Z	isbn	9780903472210
259	Azerbaiyán	78208615	2014-11-18T03:26:04Z	isbn	9781860648229
265	Alquimia	78698377	2014-12-11T07:55:18Z	isbn	8488865686
265	Alquimia	78698377	2014-12-11T07:55:18Z	isbn	9684202946
265	Alquimia	78698377	2014-12-11T07:55:18Z	isbn	9780226682952
265	Alquimia	78698377	2014-12-11T07:55:18Z	isbn	0471354082
265	Alquimia	78698377	2014-12-11T07:55:18Z	isbn	9788460907480
265	Alquimia	78698377	2014-12-11T07:55:18Z	isbn	9788481645132
266	Astrología	78848936	2014-12-17T16:25:12Z	doi	10.1177/1075547010389819
266	Astrología	78848936	2014-12-17T16:25:12Z	isbn	9501704157
266	Astrología	78848936	2014-12-17T16:25:12Z	doi	10.1016/j.paid.2005.11.017
266	Astrología	78848936	2014-12-17T16:25:12Z	isbn	9780553027761
266	Astrología	78848936	2014-12-17T16:25:12Z	isbn	0140223975
266	Astrología	78848936	2014-12-17T16:25:12Z	isbn	9706863958
266	Astrología	78848936	2014-12-17T16:25:12Z	isbn	9788493576325
266	Astrología	78848936	2014-12-17T16:25:12Z	isbn	9780917586057
266	Astrología	78848936	2014-12-17T16:25:12Z	isbn	8437061040
266	Astrología	78848936	2014-12-17T16:25:12Z	isbn	849563628X
266	Astrología	78848936	2014-12-17T16:25:12Z	isbn	950171084X
266	Astrología	78848936	2014-12-17T16:25:12Z	isbn	0731657942
266	Astrología	78848936	2014-12-17T16:25:12Z	doi	10.1017/S1743921311002602
266	Astrología	78848936	2014-12-17T16:25:12Z	isbn	8434868318
266	Astrología	78848936	2014-12-17T16:25:12Z	isbn	0521343542
266	Astrología	78848936	2014-12-17T16:25:12Z	doi	10.1037/1089-2680.2.2.175
266	Astrología	78848936	2014-12-17T16:25:12Z	isbn	9780866900874
269	Astorga	78782475	2014-12-14T21:35:48Z	isbn	8424149653
269	Astorga	78782475	2014-12-14T21:35:48Z	isbn	8460601846
269	Astorga	78782475	2014-12-14T21:35:48Z	isbn	9783822825198
269	Astorga	78782475	2014-12-14T21:35:48Z	isbn	8480120711
269	Astorga	78782475	2014-12-14T21:35:48Z	isbn	8477195234
269	Astorga	78782475	2014-12-14T21:35:48Z	isbn	8430091718
269	Astorga	78782475	2014-12-14T21:35:48Z	isbn	8495437104
269	Astorga	78782475	2014-12-14T21:35:48Z	isbn	8480121653
269	Astorga	78782475	2014-12-14T21:35:48Z	isbn	9788437619583
269	Astorga	78782475	2014-12-14T21:35:48Z	isbn	8400049438
269	Astorga	78782475	2014-12-14T21:35:48Z	isbn	9788495640673
269	Astorga	78782475	2014-12-14T21:35:48Z	isbn	9788496872035
269	Astorga	78782475	2014-12-14T21:35:48Z	isbn	8400043014
269	Astorga	78782475	2014-12-14T21:35:48Z	isbn	8485496256
269	Astorga	78782475	2014-12-14T21:35:48Z	isbn	840003953X
269	Astorga	78782475	2014-12-14T21:35:48Z	isbn	8481830739
269	Astorga	78782475	2014-12-14T21:35:48Z	isbn	9788481831566
269	Astorga	78782475	2014-12-14T21:35:48Z	isbn	849205574X
269	Astorga	78782475	2014-12-14T21:35:48Z	isbn	9788487469084
269	Astorga	78782475	2014-12-14T21:35:48Z	isbn	8477624607
269	Astorga	78782475	2014-12-14T21:35:48Z	isbn	9788449322112
269	Astorga	78782475	2014-12-14T21:35:48Z	isbn	8492055758
269	Astorga	78782475	2014-12-14T21:35:48Z	isbn	8489716773
269	Astorga	78782475	2014-12-14T21:35:48Z	isbn	8430003851
269	Astorga	78782475	2014-12-14T21:35:48Z	isbn	8423310426
269	Astorga	78782475	2014-12-14T21:35:48Z	isbn	848192136X
269	Astorga	78782475	2014-12-14T21:35:48Z	isbn	8477192995
269	Astorga	78782475	2014-12-14T21:35:48Z	isbn	8430108017
269	Astorga	78782475	2014-12-14T21:35:48Z	isbn	8487730787
269	Astorga	78782475	2014-12-14T21:35:48Z	isbn	8835927420
269	Astorga	78782475	2014-12-14T21:35:48Z	isbn	8486192110
269	Astorga	78782475	2014-12-14T21:35:48Z	isbn	8440435924
269	Astorga	78782475	2014-12-14T21:35:48Z	isbn	8486205751
269	Astorga	78782475	2014-12-14T21:35:48Z	isbn	8424142004
269	Astorga	78782475	2014-12-14T21:35:48Z	isbn	8485378636
269	Astorga	78782475	2014-12-14T21:35:48Z	isbn	9788422009061
269	Astorga	78782475	2014-12-14T21:35:48Z	isbn	8485378253
270	Alberta	78785276	2014-12-15T00:25:47Z	isbn	0888330731
270	Alberta	78785276	2014-12-15T00:25:47Z	isbn	0791060594
270	Alberta	78785276	2014-12-15T00:25:47Z	isbn	0195413482
270	Alberta	78785276	2014-12-15T00:25:47Z	isbn	0802025080
271	Andalucía	78511751	2014-12-02T22:27:22Z	isbn	8447204855
271	Andalucía	78511751	2014-12-02T22:27:22Z	isbn	8477823820
271	Andalucía	78511751	2014-12-02T22:27:22Z	isbn	8480953055
271	Andalucía	78511751	2014-12-02T22:27:22Z	isbn	849228319X
271	Andalucía	78511751	2014-12-02T22:27:22Z	isbn	9788482667256
271	Andalucía	78511751	2014-12-02T22:27:22Z	isbn	848694404X
271	Andalucía	78511751	2014-12-02T22:27:22Z	isbn	8447202100
271	Andalucía	78511751	2014-12-02T22:27:22Z	isbn	9788496776067
271	Andalucía	78511751	2014-12-02T22:27:22Z	isbn	8472316130
271	Andalucía	78511751	2014-12-02T22:27:22Z	isbn	8468961450
271	Andalucía	78511751	2014-12-02T22:27:22Z	isbn	8434434768
286	Geografía de Alemania	78505161	2014-12-02T17:36:40Z	isbn	9780470089569
289	Aquiles	78467947	2014-11-30T23:34:28Z	isbn	9788434434899
289	Aquiles	78467947	2014-11-30T23:34:28Z	isbn	9782226021632
289	Aquiles	78467947	2014-11-30T23:34:28Z	isbn	9788498765083
289	Aquiles	78467947	2014-11-30T23:34:28Z	isbn	9780824065447
289	Aquiles	78467947	2014-11-30T23:34:28Z	isbn	9789803881771
289	Aquiles	78467947	2014-11-30T23:34:28Z	isbn	9788474236934
289	Aquiles	78467947	2014-11-30T23:34:28Z	isbn	9789703225941
289	Aquiles	78467947	2014-11-30T23:34:28Z	isbn	9780801860157
289	Aquiles	78467947	2014-11-30T23:34:28Z	isbn	9788449322112
292	Afrodita	78799844	2014-12-15T11:15:25Z	isbn	9781884964985
292	Afrodita	78799844	2014-12-15T11:15:25Z	isbn	9780887068362
293	Apolo	78800212	2014-12-15T11:25:20Z	isbn	9780582391154
293	Apolo	78800212	2014-12-15T11:25:20Z	isbn	185435731X
293	Apolo	78800212	2014-12-15T11:25:20Z	isbn	8420698148
293	Apolo	78800212	2014-12-15T11:25:20Z	isbn	8423961567
293	Apolo	78800212	2014-12-15T11:25:20Z	isbn	0521772672
293	Apolo	78800212	2014-12-15T11:25:20Z	isbn	0674362802
293	Apolo	78800212	2014-12-15T11:25:20Z	isbn	0821211080
293	Apolo	78800212	2014-12-15T11:25:20Z	isbn	0807057002
293	Apolo	78800212	2014-12-15T11:25:20Z	isbn	0094723303
293	Apolo	78800212	2014-12-15T11:25:20Z	isbn	0198148224
293	Apolo	78800212	2014-12-15T11:25:20Z	isbn	9781931707862
293	Apolo	78800212	2014-12-15T11:25:20Z	isbn	8466213368
293	Apolo	78800212	2014-12-15T11:25:20Z	isbn	8475090532
293	Apolo	78800212	2014-12-15T11:25:20Z	isbn	0854312331
293	Apolo	78800212	2014-12-15T11:25:20Z	isbn	8424924622
293	Apolo	78800212	2014-12-15T11:25:20Z	isbn	0500279756
293	Apolo	78800212	2014-12-15T11:25:20Z	isbn	8448307372
300	Alicante	78853447	2014-12-17T20:09:16Z	isbn	8484155552
300	Alicante	78853447	2014-12-17T20:09:16Z	isbn	8400060407
300	Alicante	78853447	2014-12-17T20:09:16Z	isbn	8487367100
301	Agricultura ecológica	77727393	2014-10-24T08:58:59Z	isbn	9781420072778
301	Agricultura ecológica	77727393	2014-10-24T08:58:59Z	isbn	9780849315817
301	Agricultura ecológica	77727393	2014-10-24T08:58:59Z	isbn	9780849309045
301	Agricultura ecológica	77727393	2014-10-24T08:58:59Z	isbn	9588233135
301	Agricultura ecológica	77727393	2014-10-24T08:58:59Z	isbn	9780849312281
301	Agricultura ecológica	77727393	2014-10-24T08:58:59Z	isbn	9788485370474
301	Agricultura ecológica	77727393	2014-10-24T08:58:59Z	isbn	9781420052145
301	Agricultura ecológica	77727393	2014-10-24T08:58:59Z	isbn	9780849310676
301	Agricultura ecológica	77727393	2014-10-24T08:58:59Z	isbn	9781566702904
301	Agricultura ecológica	77727393	2014-10-24T08:58:59Z	isbn	1559634871
305	Axiología	77828812	2014-10-29T13:45:07Z	isbn	9789706863089
308	Adventista	77981241	2014-11-06T03:50:21Z	isbn	0959345701
308	Adventista	77981241	2014-11-06T03:50:21Z	isbn	9789702218432
311	Batista (tejido)	78518943	2014-12-03T07:35:07Z	isbn	9783534078349
311	Batista (tejido)	78518943	2014-12-03T07:35:07Z	isbn	9788434238312
311	Batista (tejido)	78518943	2014-12-03T07:35:07Z	isbn	2850365327
314	Bonsái	77376355	2014-10-05T22:33:08Z	isbn	9788428207829
314	Bonsái	77376355	2014-10-05T22:33:08Z	isbn	9788428208765
315	Biología	78686920	2014-12-10T22:14:18Z	isbn	0030712920
315	Biología	78686920	2014-12-10T22:14:18Z	isbn	8431307196
315	Biología	78686920	2014-12-10T22:14:18Z	isbn	1564090159
317	Budismo	78633237	2014-12-08T23:41:30Z	isbn	9788472456457
317	Budismo	78633237	2014-12-08T23:41:30Z	isbn	0192854534
317	Budismo	78633237	2014-12-08T23:41:30Z	isbn	0195139526
317	Budismo	78633237	2014-12-08T23:41:30Z	isbn	9879065352
317	Budismo	78633237	2014-12-08T23:41:30Z	isbn	9788446017714
317	Budismo	78633237	2014-12-08T23:41:30Z	isbn	9780521670081
317	Budismo	78633237	2014-12-08T23:41:30Z	isbn	192870607X
317	Budismo	78633237	2014-12-08T23:41:30Z	isbn	9788472455658
317	Budismo	78633237	2014-12-08T23:41:30Z	isbn	9788472453784
317	Budismo	78633237	2014-12-08T23:41:30Z	isbn	8472453049
317	Budismo	78633237	2014-12-08T23:41:30Z	isbn	8478442472
317	Budismo	78633237	2014-12-08T23:41:30Z	isbn	8472453383
317	Budismo	78633237	2014-12-08T23:41:30Z	isbn	8437505844
317	Budismo	78633237	2014-12-08T23:41:30Z	isbn	9681675177
317	Budismo	78633237	2014-12-08T23:41:30Z	isbn	8496375188
317	Budismo	78633237	2014-12-08T23:41:30Z	isbn	9788495052445
317	Budismo	78633237	2014-12-08T23:41:30Z	isbn	0415207010
317	Budismo	78633237	2014-12-08T23:41:30Z	isbn	9788499883663
317	Budismo	78633237	2014-12-08T23:41:30Z	isbn	9788496079120
317	Budismo	78633237	2014-12-08T23:41:30Z	isbn	9788481647983
317	Budismo	78633237	2014-12-08T23:41:30Z	isbn	8446026120
317	Budismo	78633237	2014-12-08T23:41:30Z	isbn	8478447628
317	Budismo	78633237	2014-12-08T23:41:30Z	isbn	9788481649772
317	Budismo	78633237	2014-12-08T23:41:30Z	isbn	0802130313
317	Budismo	78633237	2014-12-08T23:41:30Z	isbn	9788435027144
317	Budismo	78633237	2014-12-08T23:41:30Z	isbn	9788425340727
317	Budismo	78633237	2014-12-08T23:41:30Z	isbn	9788498791631
317	Budismo	78633237	2014-12-08T23:41:30Z	isbn	9788478133420
317	Budismo	78633237	2014-12-08T23:41:30Z	isbn	8472454525
317	Budismo	78633237	2014-12-08T23:41:30Z	isbn	8483230143
317	Budismo	78633237	2014-12-08T23:41:30Z	isbn	9501710076
317	Budismo	78633237	2014-12-08T23:41:30Z	isbn	9681606248
317	Budismo	78633237	2014-12-08T23:41:30Z	isbn	9788425425608
317	Budismo	78633237	2014-12-08T23:41:30Z	isbn	0712671129
317	Budismo	78633237	2014-12-08T23:41:30Z	isbn	0340867469
317	Budismo	78633237	2014-12-08T23:41:30Z	isbn	9780199663835
317	Budismo	78633237	2014-12-08T23:41:30Z	isbn	0192892231
317	Budismo	78633237	2014-12-08T23:41:30Z	isbn	0028659104
317	Budismo	78633237	2014-12-08T23:41:30Z	isbn	9788478133093
317	Budismo	78633237	2014-12-08T23:41:30Z	isbn	9788478132966
317	Budismo	78633237	2014-12-08T23:41:30Z	isbn	8495456168
317	Budismo	78633237	2014-12-08T23:41:30Z	isbn	9788437506210
317	Budismo	78633237	2014-12-08T23:41:30Z	isbn	8478443215
317	Budismo	78633237	2014-12-08T23:41:30Z	isbn	9788481648508
319	Provincia de Burgos	78544270	2014-12-04T14:01:04Z	isbn	8489805180
320	Botánica	78758054	2014-12-14T02:06:18Z	isbn	3906166481
320	Botánica	78758054	2014-12-14T02:06:18Z	isbn	8429118136
320	Botánica	78758054	2014-12-14T02:06:18Z	isbn	8428213534
320	Botánica	78758054	2014-12-14T02:06:18Z	isbn	0632036397
320	Botánica	78758054	2014-12-14T02:06:18Z	isbn	
320	Botánica	78758054	2014-12-14T02:06:18Z	isbn	8433558048
320	Botánica	78758054	2014-12-14T02:06:18Z	isbn	8428207747
320	Botánica	78758054	2014-12-14T02:06:18Z	isbn	9780878934072
320	Botánica	78758054	2014-12-14T02:06:18Z	isbn	9505043783
320	Botánica	78758054	2014-12-14T02:06:18Z	isbn	063201475X
320	Botánica	78758054	2014-12-14T02:06:18Z	isbn	0521338794
320	Botánica	78758054	2014-12-14T02:06:18Z	isbn	8471029901
320	Botánica	78758054	2014-12-14T02:06:18Z	isbn	2704003998
320	Botánica	78758054	2014-12-14T02:06:18Z	isbn	8448601823
320	Botánica	78758054	2014-12-14T02:06:18Z	isbn	8188237116
333	Begoniaceae	78491049	2014-12-02T04:01:56Z	doi	10.1111/j.1095-8339.2003.00281.x/pdf
337	Bioquímica	78420610	2014-11-28T06:29:04Z	isbn	0879697709
340	Buxaceae	70774359	2013-11-13T09:51:21Z	isbn	3540322140
348	Bosón de Higgs	78323732	2014-11-24T03:49:42Z	doi	10.1088/0954-3899/33/1/001
348	Bosón de Higgs	78323732	2014-11-24T03:49:42Z	doi	10.1103/PhysRevLett.104.061802
348	Bosón de Higgs	78323732	2014-11-24T03:49:42Z	doi	10.1016/j.physletb.2012.08.020
348	Bosón de Higgs	78323732	2014-11-24T03:49:42Z	isbn	9781420079067
348	Bosón de Higgs	78323732	2014-11-24T03:49:42Z	doi	10.1016/j.physrep.2007.10.004
348	Bosón de Higgs	78323732	2014-11-24T03:49:42Z	arxiv	1207.7235
348	Bosón de Higgs	78323732	2014-11-24T03:49:42Z	arxiv	1001.4162
348	Bosón de Higgs	78323732	2014-11-24T03:49:42Z	arxiv	1207.7214
348	Bosón de Higgs	78323732	2014-11-24T03:49:42Z	doi	10.4249/scholarpedia.8741
348	Bosón de Higgs	78323732	2014-11-24T03:49:42Z	doi	10.1016/j.physletb.2012.08.021
348	Bosón de Higgs	78323732	2014-11-24T03:49:42Z	arxiv	0907.3466
348	Bosón de Higgs	78323732	2014-11-24T03:49:42Z	arxiv	hep-ph/0503172
348	Bosón de Higgs	78323732	2014-11-24T03:49:42Z	doi	10.1142/S0217751X09045431
348	Bosón de Higgs	78323732	2014-11-24T03:49:42Z	arxiv	astro-ph/0601168
348	Bosón de Higgs	78323732	2014-11-24T03:49:42Z	arxiv	1201.3084
350	Lámina beta	77902776	2014-11-02T13:23:00Z	doi	10.1002/pro.5560050204
356	Butomaceae	70086920	2013-10-08T22:25:53Z	doi	10.1111/j.1095-8339.2009.01000.x/pdf
356	Butomaceae	70086920	2013-10-08T22:25:53Z	doi	10.1046/j.1095-8339.2003.t01-1-00158.x
356	Butomaceae	70086920	2013-10-08T22:25:53Z	doi	10.1111/j.1095-8339.2009.01000.x
368	BASIC	76947941	2014-09-13T16:30:55Z	isbn	9684513968
368	BASIC	76947941	2014-09-13T16:30:55Z	isbn	9788441508293
368	BASIC	76947941	2014-09-13T16:30:55Z	isbn	9788448137212
368	BASIC	76947941	2014-09-13T16:30:55Z	isbn	8441524483
368	BASIC	76947941	2014-09-13T16:30:55Z	isbn	968181889X
368	BASIC	76947941	2014-09-13T16:30:55Z	isbn	9788441524484
368	BASIC	76947941	2014-09-13T16:30:55Z	isbn	0471810878
368	BASIC	76947941	2014-09-13T16:30:55Z	isbn	9682604028
368	BASIC	76947941	2014-09-13T16:30:55Z	isbn	00010782
368	BASIC	76947941	2014-09-13T16:30:55Z	isbn	8441508291
368	BASIC	76947941	2014-09-13T16:30:55Z	isbn	8448137213
372	Blues	78430702	2014-11-28T20:00:09Z	isbn	0415291895
372	Blues	78430702	2014-11-28T20:00:09Z	isbn	1884848095
372	Blues	78430702	2014-11-28T20:00:09Z	isbn	0195023749
372	Blues	78430702	2014-11-28T20:00:09Z	isbn	0195040430
372	Blues	78430702	2014-11-28T20:00:09Z	isbn	1555533558
372	Blues	78430702	2014-11-28T20:00:09Z	isbn	0521454298
372	Blues	78430702	2014-11-28T20:00:09Z	isbn	0472067656
372	Blues	78430702	2014-11-28T20:00:09Z	isbn	0312115733
372	Blues	78430702	2014-11-28T20:00:09Z	isbn	0697125165
372	Blues	78430702	2014-11-28T20:00:09Z	isbn	1890490385
372	Blues	78430702	2014-11-28T20:00:09Z	isbn	0393038432
372	Blues	78430702	2014-11-28T20:00:09Z	isbn	0670495115
372	Blues	78430702	2014-11-28T20:00:09Z	isbn	8438400191
372	Blues	78430702	2014-11-28T20:00:09Z	isbn	0807844829
372	Blues	78430702	2014-11-28T20:00:09Z	isbn	0856490156
372	Blues	78430702	2014-11-28T20:00:09Z	isbn	0136483607
372	Blues	78430702	2014-11-28T20:00:09Z	isbn	0205137032
372	Blues	78430702	2014-11-28T20:00:09Z	isbn	0306810182
372	Blues	78430702	2014-11-28T20:00:09Z	isbn	0252028740
387	Barcelona	78853692	2014-12-17T20:20:57Z	isbn	8423976459
387	Barcelona	78853692	2014-12-17T20:20:57Z	isbn	8485905210
387	Barcelona	78853692	2014-12-17T20:20:57Z	isbn	8485709497
387	Barcelona	78853692	2014-12-17T20:20:57Z	isbn	9788496645080
387	Barcelona	78853692	2014-12-17T20:20:57Z	isbn	8485709799
387	Barcelona	78853692	2014-12-17T20:20:57Z	isbn	8489929386
398	Basílica de San Isidoro de León	78320751	2014-11-24T01:40:12Z	isbn	8477193606
398	Basílica de San Isidoro de León	78320751	2014-11-24T01:40:12Z	isbn	8480121114
398	Basílica de San Isidoro de León	78320751	2014-11-24T01:40:12Z	isbn	8478464336
398	Basílica de San Isidoro de León	78320751	2014-11-24T01:40:12Z	isbn	8486205190
398	Basílica de San Isidoro de León	78320751	2014-11-24T01:40:12Z	isbn	9788489483774
398	Basílica de San Isidoro de León	78320751	2014-11-24T01:40:12Z	isbn	9788474970159
398	Basílica de San Isidoro de León	78320751	2014-11-24T01:40:12Z	isbn	848183002X
398	Basílica de San Isidoro de León	78320751	2014-11-24T01:40:12Z	isbn	8440469578
399	Biblia	78340038	2014-11-24T19:32:59Z	isbn	9788481646832
399	Biblia	78340038	2014-11-24T19:32:59Z	isbn	8470790218
399	Biblia	78340038	2014-11-24T19:32:59Z	isbn	9780130923806
399	Biblia	78340038	2014-11-24T19:32:59Z	isbn	0809142511
399	Biblia	78340038	2014-11-24T19:32:59Z	isbn	0743223381
399	Biblia	78340038	2014-11-24T19:32:59Z	isbn	997281680X
399	Biblia	78340038	2014-11-24T19:32:59Z	isbn	0809124068
400	Biología molecular	78315060	2014-11-23T21:26:25Z	isbn	9789876700870
402	Biblioteca	78853160	2014-12-17T19:54:15Z	isbn	8424922638
402	Biblioteca	78853160	2014-12-17T19:54:15Z	isbn	8486168791
402	Biblioteca	78853160	2014-12-17T19:54:15Z	isbn	8477383634
402	Biblioteca	78853160	2014-12-17T19:54:15Z	isbn	8436805356
402	Biblioteca	78853160	2014-12-17T19:54:15Z	isbn	8474917506
402	Biblioteca	78853160	2014-12-17T19:54:15Z	isbn	8486168538
410	Brasil	78717378	2014-12-11T22:57:06Z	isbn	9788562936067
410	Brasil	78717378	2014-12-11T22:57:06Z	isbn	8574192422
410	Brasil	78717378	2014-12-11T22:57:06Z	isbn	8522504962
410	Brasil	78717378	2014-12-11T22:57:06Z	isbn	8535902775
410	Brasil	78717378	2014-12-11T22:57:06Z	isbn	8508082134
410	Brasil	78717378	2014-12-11T22:57:06Z	isbn	8535902929
410	Brasil	78717378	2014-12-11T22:57:06Z	doi	10.1111/j.1468-2346.2006.00513.x
410	Brasil	78717378	2014-12-11T22:57:06Z	doi	10.1177/0094582X06287338
410	Brasil	78717378	2014-12-11T22:57:06Z	isbn	852950092x
410	Brasil	78717378	2014-12-11T22:57:06Z	isbn	1804735107
410	Brasil	78717378	2014-12-11T22:57:06Z	isbn	8574205591
410	Brasil	78717378	2014-12-11T22:57:06Z	isbn	9788520008645
410	Brasil	78717378	2014-12-11T22:57:06Z	isbn	8520008356
410	Brasil	78717378	2014-12-11T22:57:06Z	isbn	8520003915
410	Brasil	78717378	2014-12-11T22:57:06Z	isbn	8521903138
410	Brasil	78717378	2014-12-11T22:57:06Z	isbn	8573024410
410	Brasil	78717378	2014-12-11T22:57:06Z	isbn	8574301221
410	Brasil	78717378	2014-12-11T22:57:06Z	isbn	9788575038680
410	Brasil	78717378	2014-12-11T22:57:06Z	isbn	9788500020940
410	Brasil	78717378	2014-12-11T22:57:06Z	isbn	8571648379
410	Brasil	78717378	2014-12-11T22:57:06Z	isbn	8535910840
410	Brasil	78717378	2014-12-11T22:57:06Z	isbn	8573028688
410	Brasil	78717378	2014-12-11T22:57:06Z	isbn	8535908072
410	Brasil	78717378	2014-12-11T22:57:06Z	isbn	8502030957
410	Brasil	78717378	2014-12-11T22:57:06Z	isbn	9788590401919
410	Brasil	78717378	2014-12-11T22:57:06Z	isbn	9788524041877
411	Evangelio de Lucas	77158131	2014-09-24T10:49:25Z	isbn	9788480050371
411	Evangelio de Lucas	77158131	2014-09-24T10:49:25Z	isbn	9788472456679
411	Evangelio de Lucas	77158131	2014-09-24T10:49:25Z	isbn	8480050373
411	Evangelio de Lucas	77158131	2014-09-24T10:49:25Z	isbn	9788481691832
415	Vergara	77883932	2014-11-01T14:33:45Z	isbn	8423992500
428	Bacteria	78737110	2014-12-12T22:17:49Z	pmid	16553872
428	Bacteria	78737110	2014-12-12T22:17:49Z	pmid	17187354
428	Bacteria	78737110	2014-12-12T22:17:49Z	doi	10.1038/nrmicro2593
428	Bacteria	78737110	2014-12-12T22:17:49Z	isbn	0838585299
428	Bacteria	78737110	2014-12-12T22:17:49Z	pmid	11167573
428	Bacteria	78737110	2014-12-12T22:17:49Z	isbn	0130662712
428	Bacteria	78737110	2014-12-12T22:17:49Z	pmid	16892246
428	Bacteria	78737110	2014-12-12T22:17:49Z	doi	10.1038/nature12352
428	Bacteria	78737110	2014-12-12T22:17:49Z	pmid	16754610
428	Bacteria	78737110	2014-12-12T22:17:49Z	pmid	11837318
428	Bacteria	78737110	2014-12-12T22:17:49Z	pmid	11885408
428	Bacteria	78737110	2014-12-12T22:17:49Z	pmid	10690412
428	Bacteria	78737110	2014-12-12T22:17:49Z	pmid	8282683
428	Bacteria	78737110	2014-12-12T22:17:49Z	pmid	16649191
428	Bacteria	78737110	2014-12-12T22:17:49Z	pmid	1102522
428	Bacteria	78737110	2014-12-12T22:17:49Z	pmid	14616063
428	Bacteria	78737110	2014-12-12T22:17:49Z	doi	10.1101/gr.6454307
428	Bacteria	78737110	2014-12-12T22:17:49Z	pmid	14557293
428	Bacteria	78737110	2014-12-12T22:17:49Z	pmid	786250
428	Bacteria	78737110	2014-12-12T22:17:49Z	doi	10.1146/annurev.genet.37.050503.084247
428	Bacteria	78737110	2014-12-12T22:17:49Z	pmid	11544351
428	Bacteria	78737110	2014-12-12T22:17:49Z	pmid	15487937
428	Bacteria	78737110	2014-12-12T22:17:49Z	pmid	15116762
428	Bacteria	78737110	2014-12-12T22:17:49Z	doi	10.1128/MMBR.00017-06
428	Bacteria	78737110	2014-12-12T22:17:49Z	pmid	11729265
428	Bacteria	78737110	2014-12-12T22:17:49Z	pmid	15639628
428	Bacteria	78737110	2014-12-12T22:17:49Z	pmid	10993081
428	Bacteria	78737110	2014-12-12T22:17:49Z	pmc	3504072
428	Bacteria	78737110	2014-12-12T22:17:49Z	pmid	11574054
428	Bacteria	78737110	2014-12-12T22:17:49Z	pmid	15385466
428	Bacteria	78737110	2014-12-12T22:17:49Z	pmid	7052179
428	Bacteria	78737110	2014-12-12T22:17:49Z	pmid	9409151
428	Bacteria	78737110	2014-12-12T22:17:49Z	pmid	165139821
428	Bacteria	78737110	2014-12-12T22:17:49Z	pmid	11932229
428	Bacteria	78737110	2014-12-12T22:17:49Z	pmid	16819463
428	Bacteria	78737110	2014-12-12T22:17:49Z	pmid	15867327
428	Bacteria	78737110	2014-12-12T22:17:49Z	pmid	16537950
428	Bacteria	78737110	2014-12-12T22:17:49Z	pmid	16959967
428	Bacteria	78737110	2014-12-12T22:17:49Z	pmid	7826026
428	Bacteria	78737110	2014-12-12T22:17:49Z	pmid	12497184
428	Bacteria	78737110	2014-12-12T22:17:49Z	doi	10.1146/annurev.micro.57.030502.090759
428	Bacteria	78737110	2014-12-12T22:17:49Z	pmid	15240306
428	Bacteria	78737110	2014-12-12T22:17:49Z	pmid	17908824
428	Bacteria	78737110	2014-12-12T22:17:49Z	pmid	9251816
428	Bacteria	78737110	2014-12-12T22:17:49Z	pmid	16478444
428	Bacteria	78737110	2014-12-12T22:17:49Z	pmid	15580495
428	Bacteria	78737110	2014-12-12T22:17:49Z	pmid	15758231
428	Bacteria	78737110	2014-12-12T22:17:49Z	pmid	2112744
428	Bacteria	78737110	2014-12-12T22:17:49Z	pmid	10890353
428	Bacteria	78737110	2014-12-12T22:17:49Z	pmid	12894113
428	Bacteria	78737110	2014-12-12T22:17:49Z	doi	10.1186/1745-6150
428	Bacteria	78737110	2014-12-12T22:17:49Z	doi	10.1016/j.cell.2005.02.026
428	Bacteria	78737110	2014-12-12T22:17:49Z	pmid	12194761
428	Bacteria	78737110	2014-12-12T22:17:49Z	pmid	15487930
428	Bacteria	78737110	2014-12-12T22:17:49Z	pmid	11780267
428	Bacteria	78737110	2014-12-12T22:17:49Z	pmid	10600695
428	Bacteria	78737110	2014-12-12T22:17:49Z	pmid	8902385
428	Bacteria	78737110	2014-12-12T22:17:49Z	pmid	15911555
428	Bacteria	78737110	2014-12-12T22:17:49Z	pmid	17038615
428	Bacteria	78737110	2014-12-12T22:17:49Z	pmid	14985762
428	Bacteria	78737110	2014-12-12T22:17:49Z	pmid	15309812
428	Bacteria	78737110	2014-12-12T22:17:49Z	pmid	7037390
428	Bacteria	78737110	2014-12-12T22:17:49Z	pmid	16012516
428	Bacteria	78737110	2014-12-12T22:17:49Z	pmid	15284186
428	Bacteria	78737110	2014-12-12T22:17:49Z	pmid	15766522
428	Bacteria	78737110	2014-12-12T22:17:49Z	pmid	9409149
428	Bacteria	78737110	2014-12-12T22:17:49Z	pmid	16959965
428	Bacteria	78737110	2014-12-12T22:17:49Z	pmid	16820497
428	Bacteria	78737110	2014-12-12T22:17:49Z	pmid	12624192
428	Bacteria	78737110	2014-12-12T22:17:49Z	pmid	11407115
428	Bacteria	78737110	2014-12-12T22:17:49Z	doi	10.1186/1471-2148-8-272
428	Bacteria	78737110	2014-12-12T22:17:49Z	isbn	0716749556
441	Constelación	78850031	2014-12-17T17:25:46Z	isbn	0486210790
449	Provincia de Cádiz	78180556	2014-11-16T18:17:46Z	isbn	8478522131
449	Provincia de Cádiz	78180556	2014-11-16T18:17:46Z	isbn	8425908795
456	Colombia	78803251	2014-12-15T15:03:47Z	isbn	9589418457
456	Colombia	78803251	2014-12-15T15:03:47Z	isbn	9789588281704
456	Colombia	78803251	2014-12-15T15:03:47Z	isbn	9589308910
456	Colombia	78803251	2014-12-15T15:03:47Z	isbn	958048340X
456	Colombia	78803251	2014-12-15T15:03:47Z	isbn	9781741042849
456	Colombia	78803251	2014-12-15T15:03:47Z	isbn	9580468060
456	Colombia	78803251	2014-12-15T15:03:47Z	isbn	92
456	Colombia	78803251	2014-12-15T15:03:47Z	isbn	9788483193693
456	Colombia	78803251	2014-12-15T15:03:47Z	isbn	9580483396
456	Colombia	78803251	2014-12-15T15:03:47Z	isbn	8496082490
460	Cine	78744611	2014-12-13T11:50:51Z	isbn	8420676918
460	Cine	78744611	2014-12-13T11:50:51Z	isbn	843760642X
460	Cine	78744611	2014-12-13T11:50:51Z	isbn	8426411797
460	Cine	78744611	2014-12-13T11:50:51Z	isbn	8475099726
460	Cine	78744611	2014-12-13T11:50:51Z	isbn	843761273X
460	Cine	78744611	2014-12-13T11:50:51Z	isbn	8496222063
460	Cine	78744611	2014-12-13T11:50:51Z	isbn	8437613698
463	Economía de Colombia	78612779	2014-12-08T02:31:50Z	isbn	9588089093
464	Lenguas de Colombia	77820713	2014-10-29T00:25:35Z	isbn	9780521362757
464	Lenguas de Colombia	77820713	2014-10-29T00:25:35Z	isbn	0
469	Catolicismo	78723805	2014-12-12T06:07:16Z	isbn	2204050903
469	Catolicismo	78723805	2014-12-12T06:07:16Z	isbn	9788820979287
469	Catolicismo	78723805	2014-12-12T06:07:16Z	isbn	9780971506107
469	Catolicismo	78723805	2014-12-12T06:07:16Z	isbn	9780060654054
469	Catolicismo	78723805	2014-12-12T06:07:16Z	isbn	9780809137947
469	Catolicismo	78723805	2014-12-12T06:07:16Z	isbn	8422004410
469	Catolicismo	78723805	2014-12-12T06:07:16Z	isbn	9780814658994
478	Cristianismo	78489002	2014-12-02T02:12:02Z	isbn	0802806694
478	Cristianismo	78489002	2014-12-02T02:12:02Z	isbn	1565635221
478	Cristianismo	78489002	2014-12-02T02:12:02Z	isbn	0766134287
478	Cristianismo	78489002	2014-12-02T02:12:02Z	isbn	9788433002990
478	Cristianismo	78489002	2014-12-02T02:12:02Z	isbn	0060663642
478	Cristianismo	78489002	2014-12-02T02:12:02Z	isbn	0060663626
478	Cristianismo	78489002	2014-12-02T02:12:02Z	isbn	9788425426421
478	Cristianismo	78489002	2014-12-02T02:12:02Z	isbn	9788401450822
478	Cristianismo	78489002	2014-12-02T02:12:02Z	isbn	8433002996
478	Cristianismo	78489002	2014-12-02T02:12:02Z	isbn	8430114653
478	Cristianismo	78489002	2014-12-02T02:12:02Z	isbn	8470573578
478	Cristianismo	78489002	2014-12-02T02:12:02Z	isbn	8473803981
478	Cristianismo	78489002	2014-12-02T02:12:02Z	isbn	9788433001757
478	Cristianismo	78489002	2014-12-02T02:12:02Z	isbn	063120637X
478	Cristianismo	78489002	2014-12-02T02:12:02Z	isbn	8429317169
478	Cristianismo	78489002	2014-12-02T02:12:02Z	isbn	0631225285
478	Cristianismo	78489002	2014-12-02T02:12:02Z	isbn	9788470830815
478	Cristianismo	78489002	2014-12-02T02:12:02Z	isbn	0802818056
478	Cristianismo	78489002	2014-12-02T02:12:02Z	isbn	8427014589
478	Cristianismo	78489002	2014-12-02T02:12:02Z	isbn	8430107754
478	Cristianismo	78489002	2014-12-02T02:12:02Z	isbn	8481645397
478	Cristianismo	78489002	2014-12-02T02:12:02Z	isbn	8470830813
